<?xml version="1.0" encoding="UTF-8"?>
<svg width="32px" height="33px" viewBox="0 0 32 33" version="1.1" xmlns="http://www.w3.org/2000/svg" xmlns:xlink="http://www.w3.org/1999/xlink">
    <!-- Generator: Sketch 49.3 (51167) - http://www.bohemiancoding.com/sketch -->
    <title>social/telegram</title>
    <desc>Created with Sketch.</desc>
    <defs></defs>
    <g id="Symbols" stroke="none" stroke-width="1" fill="none" fill-rule="evenodd">
        <g id="social/telegram" fill="#053788" fill-rule="nonzero">
            <path d="M5.3885854,16.110431 L10.457832,17.9871536 L12.4199413,24.2463146 C12.5454881,24.6471912 13.0396821,24.795365 13.3677025,24.5293505 L16.1933862,22.2444043 C16.4895799,22.0050131 16.9114671,21.9930835 17.2210076,22.2159625 L22.3175342,25.8862646 C22.6684347,26.1392585 23.165562,25.9485311 23.2535621,25.5279415 L26.9870403,7.71427942 C27.0831071,7.25484608 26.6279999,6.87157276 26.1869726,7.04076877 L5.38264539,15.0016371 C4.86923805,15.1980383 4.87371139,15.9190489 5.3885854,16.110431 Z M12.4898897,18.0192351 L22.7257485,12.0271487 C22.9097088,11.9197755 23.0989727,12.1561982 22.9410002,12.2954737 L14.4934505,19.7590265 C14.1965229,20.0217343 14.004986,20.3733077 13.9507374,20.754911 L13.6629774,22.7818229 C13.6248671,23.0524524 13.2248974,23.0793137 13.1463279,22.817398 L12.0396114,19.1212686 C11.9128546,18.6996974 12.0975725,18.2493926 12.4898897,18.0192351 Z" id="XMLID_497_"></path>
        </g>
    </g>
</svg>