<?xml version="1.0" encoding="UTF-8"?>
<svg width="220px" height="200px" viewBox="0 0 220 200" version="1.1" xmlns="http://www.w3.org/2000/svg" xmlns:xlink="http://www.w3.org/1999/xlink">
    <!-- Generator: Sketch 50.2 (55047) - http://www.bohemiancoding.com/sketch -->
    <title>benefits/sport</title>
    <desc>Created with Sketch.</desc>
    <defs></defs>
    <g id="Symbols" stroke="none" stroke-width="1" fill="none" fill-rule="evenodd">
        <g id="benefits/sport">
            <g id="Монтажная-область-1-копия-8" transform="translate(16.000000, 44.000000)">
                <path d="M115.5,48.94 L113.34,29.8 C112.895958,26.9511287 113.892183,24.06732 116,22.1 C117.959446,20.5720201 120.234472,19.4994101 122.66,18.96 C122.66,18.96 124,24.8 125.04,28.34 C126.08,31.88 127.68,36.34 127.68,36.34 L128.28,49.88 C127.617283,52.4576606 126.608089,54.933551 125.28,57.24 C123.580442,59.5194264 121.559426,61.5404418 119.28,63.24" id="Shape" stroke="#064CBE" stroke-width="4" fill="#E7EDF9" fill-rule="nonzero"></path>
                <rect id="Rectangle-path" fill="#447BFF" fill-rule="nonzero" transform="translate(94.000000, 40.280000) rotate(180.000000) translate(-94.000000, -40.280000) " x="45.06" y="30.28" width="97.88" height="20"></rect>
                <rect id="Rectangle-path" stroke="#064CBE" stroke-width="4" fill="#FFFFFF" fill-rule="nonzero" x="25.06" y="0.28" width="20" height="80"></rect>
                <rect id="Rectangle-path" stroke="#064CBE" stroke-width="4" fill="#CDDBF2" fill-rule="nonzero" x="9.82" y="20.28" width="15.24" height="40"></rect>
                <rect id="Rectangle-path" stroke="#064CBE" stroke-width="4" fill="#E7EDF9" fill-rule="nonzero" transform="translate(5.060000, 40.280000) rotate(180.000000) translate(-5.060000, -40.280000) " x="0.56" y="30.28" width="9" height="20"></rect>
                <rect id="Rectangle-path" stroke="#064CBE" stroke-width="4" fill="#FFFFFF" fill-rule="nonzero" transform="translate(152.940000, 40.280000) rotate(180.000000) translate(-152.940000, -40.280000) " x="142.94" y="0.28" width="20" height="80"></rect>
                <rect id="Rectangle-path" stroke="#064CBE" stroke-width="4" fill="#CDDBF2" fill-rule="nonzero" transform="translate(170.560000, 40.280000) rotate(180.000000) translate(-170.560000, -40.280000) " x="162.94" y="20.28" width="15.24" height="40"></rect>
                <polygon id="Shape" fill="#FFFFFF" fill-rule="nonzero" points="59.42 51.52 66.94 72.42 67 111.7 100.42 111.7 100.34 62.4 115.54 51.52 114.04 29.46 60.44 29.46 58.68 39.88"></polygon>
                <path d="M100.42,80.28 C100.42,71.82 113.66,67.72 119.86,62.12 L116.42,52 L113.1,27.58 C111.273332,24.7488407 108.063415,23.1209542 104.7,23.32 C104.7,23.32 106.7,42.72 102.34,53.8 C99.02,62.36 93.1,68.32 92.82,73.9 C92.24,85.9 92,111.36 92,111.36 L100.42,111.7 L100.42,80.28 Z" id="Shape" fill="#E7EDF9" fill-rule="nonzero"></path>
                <rect id="Rectangle-path" stroke="#064CBE" stroke-width="4" fill="#E7EDF9" fill-rule="nonzero" x="178.44" y="30.28" width="9" height="20"></rect>
                <path d="M121.16,61.72 C114.96,67.3 100.42,71.72 100.42,80.28 C100.42,85.2 101.68,111.7 101.68,111.7 L65,111.7 C65,111.7 67,82.38 67,73.58 C67,64.78 58.5,59.58 58.5,42.46 C58.5,29.6 59.9,25.54 65.96,25.54 C67.96,25.54 71.96,25.44 71.96,25.44 C72.176606,24.0752026 72.9063342,22.8446805 74,22 C76.42,20.5 85.04,21.32 85.04,21.32 C85.0832462,20.6012979 85.3256188,19.9088048 85.74,19.32 C87.26,17.54 96.94,17.78 98.78,19.48 C99.48,20.14 99.48,22.2 99.48,22.2 C99.48,22.2 103.94,22.2 106.28,22.2 C112.44,22.2 113.1,26.44 113.1,26.44 L115.88,52.22" id="Shape" stroke="#064CBE" stroke-width="4"></path>
                <path d="M71.88,30.28 L71.88,25.44" id="Shape" stroke="#064CBE" stroke-width="4"></path>
                <path d="M85.12,25.72 L85.12,20.88" id="Shape" stroke="#064CBE" stroke-width="4"></path>
                <path d="M99.48,26.16 L99.48,22.26" id="Shape" stroke="#064CBE" stroke-width="4"></path>
            </g>
        </g>
    </g>
</svg>