<?xml version="1.0" encoding="UTF-8"?>
<svg width="35px" height="35px" viewBox="0 0 35 35" version="1.1" xmlns="http://www.w3.org/2000/svg" xmlns:xlink="http://www.w3.org/1999/xlink">
    <!-- Generator: Sketch 49.3 (51167) - http://www.bohemiancoding.com/sketch -->
    <title>smallicon/adres</title>
    <desc>Created with Sketch.</desc>
    <defs></defs>
    <g id="Symbols" stroke="none" stroke-width="1" fill="none" fill-rule="evenodd">
        <g id="smallicon/adres">
            <path d="M11.9844384,23.5086694 C11.9727581,23.5200712 11.9602019,23.5324242 11.946566,23.5458064 C11.9656563,23.5270712 11.9881639,23.504076 12.0137633,23.4771309 Z M12.5,22.9232986 C12.6995917,22.6854799 12.9288028,22.403334 13.175242,22.0912281 C14.0884985,20.9346237 15.1032473,19.5425772 16.0349868,18.1435868 C18.4860973,14.4632871 20,11.2988711 20,9.5 C20,5.35786438 16.6421356,2 12.5,2 C8.35786438,2 5,5.35786438 5,9.5 C5,11.2988711 6.51390268,14.4632871 8.96501325,18.1435868 C9.89675267,19.5425772 10.9115015,20.9346237 11.824758,22.0912281 C12.0711972,22.403334 12.3004083,22.6854799 12.5,22.9232986 Z" id="Oval" stroke="#064CBE" stroke-width="2"></path>
            <circle id="Oval-Copy" fill="#064CBE" cx="12.5" cy="9.5" r="2.5"></circle>
        </g>
    </g>
</svg>