<?xml version="1.0" encoding="UTF-8"?>
<svg width="30px" height="30px" viewBox="0 0 30 30" version="1.1" xmlns="http://www.w3.org/2000/svg" xmlns:xlink="http://www.w3.org/1999/xlink">
    <!-- Generator: Sketch 50.2 (55047) - http://www.bohemiancoding.com/sketch -->
    <title>share-mail</title>
    <desc>Created with Sketch.</desc>
    <defs></defs>
    <g id="Symbols" stroke="none" stroke-width="1" fill="none" fill-rule="evenodd">
        <g id="share/mail" fill="#FFFFFF" fill-rule="nonzero">
            <path d="M15.4996244,14.6180128 L22.9076944,10 L8.09155451,10 L15.4996244,14.6180128 Z M23,18.6590659 L22.9992489,18.6590659 C22.9992489,19.3997835 22.3987615,20 21.6578961,20 L9.34135281,20 C8.60040394,20 8,19.3997001 8,18.6590659 L8,11.5785302 C8,11.5001867 8.00801206,11.4240124 8.02103166,11.3491731 L15.0990213,15.7613568 C15.107701,15.7667799 15.116965,15.770451 15.1258951,15.775457 C15.1352425,15.7806298 15.1447568,15.7856358 15.1542712,15.7903914 C15.2042631,15.8161722 15.2557573,15.836947 15.3084199,15.8505466 C15.3138447,15.8520484 15.3192696,15.8527158 15.3246944,15.8539673 C15.382448,15.8675669 15.4409528,15.8760771 15.4993741,15.8760771 L15.4997914,15.8760771 C15.5002086,15.8760771 15.5006259,15.8760771 15.5006259,15.8760771 C15.5590472,15.8760771 15.617552,15.8678172 15.6753056,15.8539673 C15.6807304,15.8526324 15.6861553,15.8520484 15.6915801,15.8505466 C15.7441593,15.836947 15.7954865,15.8161722 15.8457288,15.7903914 C15.8552432,15.7856358 15.8647575,15.7806298 15.8741049,15.775457 C15.8829516,15.770451 15.892299,15.7667799 15.9009787,15.7613568 L22.9789683,11.3491731 C22.9919879,11.4240124 23,11.5000198 23,11.5785302 L23,18.6590659 Z" id="Shape"></path>
        </g>
    </g>
</svg>