<?xml version="1.0" encoding="UTF-8"?>
<svg width="220px" height="200px" viewBox="0 0 220 200" version="1.1" xmlns="http://www.w3.org/2000/svg" xmlns:xlink="http://www.w3.org/1999/xlink">
    <!-- Generator: sketchtool 49.3 (51167) - http://www.bohemiancoding.com/sketch -->
    <title>AAFF431F-271F-471C-8E93-2F1C8F543882</title>
    <desc>Created with sketchtool.</desc>
    <defs>
        <polygon id="path-1" points="0 164 165.79 164 165.79 0 0 0"></polygon>
    </defs>
    <g id="Symbols" stroke="none" stroke-width="1" fill="none" fill-rule="evenodd">
        <g id="products/lend">
            <g id="Page-1" transform="translate(28.000000, 18.000000)">
                <path d="M104.001,101.9996 C98.221,98.7756 86.001,95.9996 76.001,95.9996 L44.001,95.9996 L42.871,91.5196 C42.311,94.3236 42.001,97.1576 42.001,99.9996 C42.001,131.4796 61.521,145.9996 93.001,145.9996 C115.153,145.9996 131.741,137.8176 140.001,121.9996 C138.937,122.1596 131.421,120.3316 124.001,115.9996 C118.977,113.0676 113.929,107.5396 104.001,101.9996" id="Fill-1" fill="#CDDBF2"></path>
                <path d="M146.001,95.9996 C146.001,127.4796 124.479,143.9996 93.001,143.9996 C61.521,143.9996 42.001,129.4796 42.001,97.9996 C42.001,66.5196 79.001,35.9996 94.001,35.9996 C111.001,35.9996 146.001,64.5196 146.001,95.9996 Z" id="Stroke-3" stroke="#064CBE" stroke-width="4"></path>
                <polygon id="Fill-5" fill="#FFFFFF" points="72.001 153.9996 24.001 149.9996 26.001 117.9996 70.001 125.9996"></polygon>
                <g id="Group-10" transform="translate(22.000000, 128.000000)">
                    <path d="M46.001,7.9996 L84.001,7.9996 C97.319,7.6836 130.119,1.6356 130.119,1.6356 C135.563,0.7116 140.725,4.3796 141.649,9.8256 C142.571,15.2696 138.905,20.4316 133.459,21.3536 C133.459,21.3536 76.001,31.9996 48.001,31.9996 C20.001,31.9996 0.001,25.9996 0.001,25.9996" id="Fill-7" fill="#FFFFFF"></path>
                    <path d="M46.001,7.9996 L84.001,7.9996 C97.319,7.6836 130.119,1.6356 130.119,1.6356 C135.563,0.7116 140.725,4.3796 141.649,9.8256 C142.571,15.2696 138.905,20.4316 133.459,21.3536 C133.459,21.3536 76.001,31.9996 48.001,31.9996 C20.001,31.9996 0.001,25.9996 0.001,25.9996" id="Stroke-9" stroke="#064CBE" stroke-width="4"></path>
                </g>
                <g id="Group-14" transform="translate(22.000000, 112.000000)">
                    <path d="M36.001,23.9996 L72.501,23.9996 C78.023,23.9996 82.501,19.5236 82.501,13.9996 C82.501,8.4776 78.023,3.9996 72.501,3.9996 L44.501,3.9996 C38.501,3.9996 29.251,-0.0004 20.001,-0.0004 C10.751,-0.0004 0.001,3.9996 0.001,3.9996" id="Fill-11" fill="#FFFFFF"></path>
                    <path d="M36.001,23.9996 L72.501,23.9996 C78.023,23.9996 82.501,19.5236 82.501,13.9996 C82.501,8.4776 78.023,3.9996 72.501,3.9996 L44.501,3.9996 C38.501,3.9996 29.251,-0.0004 20.001,-0.0004 C10.751,-0.0004 0.001,3.9996 0.001,3.9996" id="Stroke-13" stroke="#064CBE" stroke-width="4"></path>
                </g>
                <mask id="mask-2" fill="white">
                    <use xlink:href="#path-1"></use>
                </mask>
                <g id="Clip-16"></g>
                <polygon id="Fill-15" fill="#447BFF" mask="url(#mask-2)" points="0 164 26 164 26 106 0 106"></polygon>
                <path d="M90.001,25.9996 C86.483,27.1716 80.001,29.9996 78.907,31.6196 C80.235,33.0376 81.905,34.5496 84.001,35.9996 C86.355,36.8016 92.055,38.3616 98.001,35.9996 C105.097,33.1796 108.249,31.6816 110.001,25.9996 C104.001,23.9996 96.001,23.9996 90.001,25.9996" id="Fill-17" fill="#CDDBF2" mask="url(#mask-2)"></path>
                <path d="M84.001,35.9996 C79.925,33.1796 77.439,30.1136 76.001,27.9996 C73.747,24.6916 70.307,19.0776 72.001,13.9996 C74.001,7.9996 81.281,8.6396 84.001,9.9996 C88.001,11.9996 89.885,13.9996 92.001,13.9996 C94.111,13.9996 94.001,1.9996 104.001,1.9996 C112.001,1.9996 112.001,13.1656 112.001,15.9996 C112.001,24.3616 107.737,32.1296 98.001,35.9996 C92.055,38.3616 86.355,36.8016 84.001,35.9996 Z" id="Stroke-18" stroke="#064CBE" stroke-width="4" mask="url(#mask-2)"></path>
                <path d="M104.001,33.9996 L82.001,33.9996 C79.791,33.9996 78.001,35.7916 78.001,37.9996 C78.001,40.2096 79.791,41.9996 82.001,41.9996 L104.001,41.9996 C106.209,41.9996 108.001,40.2096 108.001,37.9996 C108.001,35.7916 106.209,33.9996 104.001,33.9996" id="Fill-19" fill="#FFFFFF" mask="url(#mask-2)"></path>
                <path d="M104.001,33.9996 L82.001,33.9996 C79.791,33.9996 78.001,35.7916 78.001,37.9996 C78.001,40.2096 79.791,41.9996 82.001,41.9996 L104.001,41.9996 C106.209,41.9996 108.001,40.2096 108.001,37.9996 C108.001,35.7916 106.209,33.9996 104.001,33.9996 Z" id="Stroke-20" stroke="#064CBE" stroke-width="4" mask="url(#mask-2)"></path>
                <path d="M128.036,108.444 C136.526,89.568 126.628,64.506 107.964,55.556" id="Stroke-21" stroke="#447BFF" stroke-width="4" mask="url(#mask-2)"></path>
            </g>
        </g>
    </g>
</svg>