<?xml version="1.0" encoding="UTF-8"?>
<svg width="550px" height="728px" viewBox="0 0 550 728" version="1.1" xmlns="http://www.w3.org/2000/svg" xmlns:xlink="http://www.w3.org/1999/xlink">
    <!-- Generator: Sketch 50.2 (55047) - http://www.bohemiancoding.com/sketch -->
    <title>logo-notext</title>
    <desc>Created with Sketch.</desc>
    <defs>
        <linearGradient x1="50%" y1="100%" x2="50%" y2="0%" id="linearGradient-1">
            <stop stop-color="#447BFF" offset="0%"></stop>
            <stop stop-color="#2261DC" offset="100%"></stop>
        </linearGradient>
    </defs>
    <g id="Symbols" stroke="none" stroke-width="1" fill="none" fill-rule="evenodd">
        <g id="logo-notext" fill-rule="nonzero">
            <g id="Group">
                <polygon id="Shape" fill="url(#linearGradient-1)" points="274.09568 193 0 460.065546 274.995433 728 276.365614 726.649365 335.639667 668.792667 212.286791 551.188382 230.437129 533.076368 352.483765 652.499508 403.308366 602.976227 282.115809 483.895248 300.129129 466.134399 421.559184 585.188365 468.542708 539.410845 475.430154 532.702692 353.027271 414.459106 369.606467 397.229507 492.242281 516.342001 550 460.065546"></polygon>
                <path d="M275,193 C243.116799,212.249943 210.336335,229.684716 176.509206,244.808828 C161.375172,251.60978 144.753976,254.26984 128.295653,252.524938 C114.79254,250.641098 101.821532,245.928008 90.2042058,238.684195 C80.9772901,232.99654 72.6945967,225.86024 65.6636895,217.540291 L1,283.723448 L1,460 L275,193 Z" id="Shape" fill="url(#linearGradient-1)"></path>
                <path d="M274,0 L274,158.655292 L547.439146,411 C547.626098,360.72365 547.813049,310.447299 548,260.170949 L274,0 Z" id="Shape" fill="url(#linearGradient-1)"></path>
                <path d="M275,0 C210.669706,65.427456 146.336373,130.854912 82,196.282368 C87.6385699,202.763344 94.3756846,208.177755 101.895403,212.271688 C109.861938,216.540303 118.53176,219.307903 127.480418,220.438994 C141.457805,222.108894 155.624245,220.03524 168.556857,214.42631 C203.586237,199.08079 237.542293,181.348701 270.190273,161.352633 L275,158.360102 L275,0 Z" id="Shape" fill="#346FEE"></path>
                <polygon id="Shape" fill="#25448F" points="68 221 68 221 0 289"></polygon>
            </g>
        </g>
    </g>
</svg>