<?xml version="1.0" encoding="UTF-8"?>
<svg width="1308px" height="374px" viewBox="0 0 1308 374" version="1.1" xmlns="http://www.w3.org/2000/svg" xmlns:xlink="http://www.w3.org/1999/xlink">
    <!-- Generator: Sketch 49.3 (51167) - http://www.bohemiancoding.com/sketch -->
    <title>images/heroimage</title>
    <desc>Created with Sketch.</desc>
    <defs></defs>
    <g id="Symbols" stroke="none" stroke-width="1" fill="none" fill-rule="evenodd">
        <g id="images/heroimage">
            <g id="IMAGE">
                <g id="MONEY" transform="translate(111.000000, 187.000000)">
                    <rect id="Rectangle-path" stroke="#054CBE" stroke-width="2" fill="#FFFFFF" fill-rule="nonzero" x="0" y="83.7649519" width="206.22449" height="82.9620673"></rect>
                    <path d="M0,100.633558 L206.22449,100.633558" id="Shape" stroke-opacity="0.3" stroke="#054CBE" stroke-width="0.75"></path>
                    <path d="M73.8011905,83.7649519 L73.8011905,166.735048" id="Shape" stroke="#054CBE" stroke-width="0.75"></path>
                    <path d="M0,94.4834615 L210.221088,94.4834615" id="Shape" stroke="#054CBE" stroke-width="0.75"></path>
                    <path d="M0,106.783654 L208.622449,106.783654" id="Shape" stroke="#054CBE" stroke-width="0.75"></path>
                    <path d="M0,110.533125 L206.22449,110.533125" id="Shape" stroke-opacity="0.2" stroke="#054CBE" stroke-width="0.75"></path>
                    <path d="M0,89.2566827 L206.22449,89.2566827" id="Shape" stroke-opacity="0.2" stroke="#054CBE" stroke-width="0.75"></path>
                    <rect id="Rectangle-path" fill-opacity="0.1" fill="#054CBE" fill-rule="nonzero" x="0" y="83.7649519" width="73.8011905" height="82.9620673"></rect>
                    <rect id="Rectangle-path" stroke="#054CBE" stroke-width="2" fill="#FFFFFF" fill-rule="nonzero" x="115.197959" y="83.7649519" width="49.1581633" height="82.9620673"></rect>
                    <rect id="Rectangle-path" fill-opacity="0.1" fill="#054CBE" fill-rule="nonzero" x="119.562245" y="83.7649519" width="5.39540816" height="82.9620673"></rect>
                    <rect id="Rectangle-path" stroke="#054CBE" stroke-width="2" fill="#FFFFFF" fill-rule="nonzero" x="24.6430272" y="0.802884615" width="206.22449" height="82.9620673"></rect>
                    <path d="M24.6430272,17.6714904 L230.867517,17.6714904" id="Shape" stroke-opacity="0.3" stroke="#054CBE" stroke-width="0.75"></path>
                    <path d="M98.4442177,0.802884615 L98.4442177,83.7649519" id="Shape" stroke="#054CBE" stroke-width="0.75"></path>
                    <path d="M24.6430272,11.5213942 L234.864116,11.5213942" id="Shape" stroke="#054CBE" stroke-width="0.75"></path>
                    <path d="M24.6430272,23.8215865 L233.265476,23.8215865" id="Shape" stroke="#054CBE" stroke-width="0.75"></path>
                    <path d="M24.6430272,27.5630288 L230.867517,27.5630288" id="Shape" stroke-opacity="0.2" stroke="#054CBE" stroke-width="0.75"></path>
                    <path d="M24.6430272,39.8150481 L230.867517,39.8150481" id="Shape" stroke-opacity="0.2" stroke="#054CBE" stroke-width="0.75"></path>
                    <path d="M24.6430272,56.8763462 L230.867517,56.8763462" id="Shape" stroke-opacity="0.2" stroke="#054CBE" stroke-width="0.75"></path>
                    <path d="M24.6430272,6.28658654 L230.867517,6.28658654" id="Shape" stroke-opacity="0.2" stroke="#054CBE" stroke-width="0.75"></path>
                    <path d="M230.867517,44.9615385 L24.6430272,44.9615385" id="Shape" stroke-opacity="0.4" stroke="#054CBE" stroke-width="0.75"></path>
                    <path d="M22.245068,47.1052404 L230.867517,47.1052404" id="Shape" stroke="#054CBE" stroke-width="0.75"></path>
                    <path d="M23.9076531,54.3312019 L230.867517,54.3312019" id="Shape" stroke="#054CBE" stroke-width="0.75"></path>
                    <path d="M24.6430272,63.9658173 L230.867517,63.9658173" id="Shape" stroke-opacity="0.5" stroke="#054CBE" stroke-width="0.75"></path>
                    <path d="M230.867517,73.6726923 L24.6430272,73.6726923" id="Shape" stroke="#054CBE" stroke-width="0.75"></path>
                    <path d="M24.6430272,77.8798077 L230.867517,77.8798077" id="Shape" stroke-opacity="0.3" stroke="#054CBE" stroke-width="0.75"></path>
                    <rect id="Rectangle-path" fill-opacity="0.1" fill="#054CBE" fill-rule="nonzero" x="24.6430272" y="0.802884615" width="73.8011905" height="82.9620673"></rect>
                    <rect id="Rectangle-path" stroke="#054CBE" stroke-width="2" fill="#FFFFFF" fill-rule="nonzero" x="128.65051" y="0" width="49.1581633" height="82.9620673"></rect>
                </g>
                <g id="MONEY2" transform="translate(1089.000000, 291.000000)">
                    <rect id="Rectangle-path" stroke="#054CBE" stroke-width="2" fill="#FFFFFF" fill-rule="nonzero" x="7.48450549" y="0" width="206.967033" height="82.4652885"></rect>
                    <path d="M7.48450549,16.7675962 L214.451538,16.7675962" id="Shape" stroke-opacity="0.3" stroke="#054CBE" stroke-width="0.75"></path>
                    <path d="M7.48450549,10.6543269 L218.462527,10.6543269" id="Shape" stroke="#054CBE" stroke-width="0.75"></path>
                    <path d="M7.48450549,22.8808654 L216.858132,22.8808654" id="Shape" stroke="#054CBE" stroke-width="0.75"></path>
                    <path d="M7.48450549,26.5999038 L214.451538,26.5999038" id="Shape" stroke-opacity="0.2" stroke="#054CBE" stroke-width="0.75"></path>
                    <path d="M7.48450549,38.7785577 L214.451538,38.7785577" id="Shape" stroke-opacity="0.2" stroke="#054CBE" stroke-width="0.75"></path>
                    <path d="M7.48450549,55.7376923 L214.451538,55.7376923" id="Shape" stroke-opacity="0.2" stroke="#054CBE" stroke-width="0.75"></path>
                    <path d="M7.48450549,5.45086538 L214.451538,5.45086538" id="Shape" stroke-opacity="0.2" stroke="#054CBE" stroke-width="0.75"></path>
                    <path d="M214.451538,43.8942308 L7.48450549,43.8942308" id="Shape" stroke-opacity="0.4" stroke="#054CBE" stroke-width="0.75"></path>
                    <path d="M5.07791209,46.0250962 L214.451538,46.0250962" id="Shape" stroke="#054CBE" stroke-width="0.75"></path>
                    <path d="M0,53.2077885 L214.451538,53.2077885" id="Shape" stroke="#054CBE" stroke-width="0.75"></path>
                    <path d="M7.48450549,62.7847115 L214.451538,62.7847115" id="Shape" stroke-opacity="0.5" stroke="#054CBE" stroke-width="0.75"></path>
                    <path d="M214.451538,72.4334615 L7.48450549,72.4334615" id="Shape" stroke="#054CBE" stroke-width="0.75"></path>
                    <path d="M7.48450549,76.6153846 L214.451538,76.6153846" id="Shape" stroke-opacity="0.3" stroke="#054CBE" stroke-width="0.75"></path>
                    <rect id="Rectangle-path" stroke="#054CBE" stroke-width="2" fill="#FFFFFF" fill-rule="nonzero" x="123.105275" y="0" width="49.3351648" height="82.4652885"></rect>
                    <rect id="Rectangle-path" fill-opacity="0.1" fill="#054CBE" fill-rule="nonzero" x="127.485275" y="0" width="5.41483516" height="82.4652885"></rect>
                    <rect id="Rectangle-path" fill-opacity="0.1" fill="#054CBE" fill-rule="nonzero" x="162.74989" y="0" width="5.41483516" height="82.4652885"></rect>
                </g>
                <g id="BAG" transform="translate(300.000000, 0.000000)">
                    <rect id="Rectangle-path" fill-opacity="0.1" fill="#054CBE" fill-rule="nonzero" x="21.356162" y="247.576788" width="5.40713028" height="82.7525054"></rect>
                    <rect id="Rectangle-path" fill-opacity="0.1" fill="#054CBE" fill-rule="nonzero" x="10.8302817" y="164.824283" width="5.40713028" height="82.7525054"></rect>
                    <rect id="Rectangle-path" fill-opacity="0.1" fill="#054CBE" fill-rule="nonzero" x="46.0527289" y="164.824283" width="5.40713028" height="82.7525054"></rect>
                    <path d="M409.796391,286.618544 L409.796391,369.371049" id="Shape" stroke="#054CBE" stroke-width="0.75"></path>
                    <rect id="Rectangle-path" fill-opacity="0.1" fill="#054CBE" fill-rule="nonzero" x="335.826849" y="286.618544" width="73.9615317" height="82.7525054"></rect>
                    <path d="M6.05598592,359.872891 C11.230986,366.889563 19.4615608,370.994886 28.181162,370.908694 L351.319278,370.908694 C367.460563,370.908694 381.591197,357.70257 382.720687,341.56531 L401.745775,69.5463812 C402.474709,59.0848441 394.586239,50.0117827 384.122535,49.2767024 C383.681954,49.2767024 383.241373,49.2366595 382.800792,49.2366595 L29.959507,49.2366595 C21.4683099,49.2366595 19.2253521,79.9334904 19.2253521,79.9334904 L0.881161972,341.56531 C0.376202133,348.08863 2.21066098,354.57861 6.05598592,359.872891 Z" id="Shape" stroke="#054CBE" stroke-width="2" fill="#FFFFFF" fill-rule="nonzero"></path>
                    <path d="M14.2427817,359.872891 C10.3974568,354.57861 8.56299791,348.08863 9.06795775,341.56531 L22.2293134,97.3040685 L26.1304577,97.3040685 L27.3640845,79.9495075 C27.3640845,79.9495075 29.6390845,49.2366595 38.1463028,49.2366595 L384.867518,49.2366595 C391.416718,49.2345351 397.698407,51.8340567 402.330142,56.4631345 C406.961877,61.0922124 409.564085,67.371491 409.564085,73.9190578 C409.564085,74.4956745 409.564085,75.0722912 409.508011,75.6408994 L390.915493,341.56531 C389.786004,357.70257 375.65537,370.908694 359.514085,370.908694 L36.3679577,370.908694 C27.6480528,370.996204 19.4169108,366.890598 14.2427817,359.872891 Z" id="Shape" stroke="#054CBE" stroke-width="2" fill="#FFFFFF" fill-rule="nonzero"></path>
                    <path d="M19.2894366,359.872891 C15.4441117,354.57861 13.6096528,348.08863 14.1146127,341.56531 L32.41875,79.9254818 C32.41875,79.9254818 34.7017606,49.2366595 43.1929577,49.2366595 L389.922183,49.2366595 C396.469995,49.2366595 402.749626,51.837119 407.379629,56.4659666 C412.009631,61.0948142 414.610739,67.3728788 414.610739,73.9190578 C414.610739,74.4956745 414.610739,75.0722912 414.554665,75.6408994 L395.954137,341.56531 C394.824648,357.70257 380.694014,370.908694 364.552729,370.908694 L41.4146127,370.908694 C32.6950115,370.994886 24.4644367,366.889563 19.2894366,359.872891 Z" id="Shape" fill-opacity="0.1" fill="#054CBE" fill-rule="nonzero"></path>
                    <path d="M27.4361796,97.2880514 L21.5484155,341.549293 C21.2492684,349.027019 23.9339641,356.317225 29.0117773,361.815816 C34.0895905,367.314407 41.144477,370.570863 48.6241197,370.868651 L49.8737676,370.868651 L373.003873,370.868651 C389.319155,370.706193 402.661226,357.821101 403.38794,341.525268 L411.935211,97.2640257 L27.4361796,97.2880514 Z" id="Shape" stroke="#054CBE" stroke-width="0.75" fill="#FFFFFF" fill-rule="nonzero"></path>
                    <path d="M34.7017606,97.2880514 L26.1544894,341.549293 C25.8531918,349.027585 28.5371559,356.318998 33.6154114,361.818068 C38.6936669,367.317138 45.7498152,370.572961 53.2301937,370.868651 L54.471831,370.868651 L377.609947,370.868651 C393.923767,370.705981 407.263422,357.819824 407.986004,341.525268 L416.541285,97.2640257 L34.7017606,97.2880514 Z" id="Shape" fill-opacity="0.1" fill="#054CBE" fill-rule="nonzero"></path>
                    <path d="M32.9073944,97.2880514 L35.446743,341.549293 C35.4951303,357.735116 48.6075859,370.844301 64.7974472,370.892677 L387.927553,370.892677 C404.120542,370.848697 417.237858,357.738231 417.286268,341.549293 L417.286268,97.2880514 L32.9073944,97.2880514 Z" id="Shape" stroke="#054CBE" stroke-width="0.75" fill="#FFFFFF" fill-rule="nonzero"></path>
                    <path d="M38.4507042,97.2880514 L39.6522887,341.549293 C39.7006761,357.735116 52.8131317,370.844301 69.002993,370.892677 L392.117077,370.892677 C408.310067,370.848697 421.427383,357.738231 421.475792,341.549293 L421.475792,97.2880514 L38.4507042,97.2880514 Z" id="Shape" fill-opacity="0.1" fill="#054CBE" fill-rule="nonzero"></path>
                    <path d="M410.060739,370.908694 L86.9226232,370.908694 C70.781338,370.908694 56.6507042,357.70257 55.5212148,341.56531 L38.4507042,97.2880514 L420.274208,97.2880514 L437.376761,341.56531 C438.609452,356.463073 427.539929,369.543927 412.640141,370.796574 C411.782818,370.877941 410.921891,370.915364 410.060739,370.908694 Z" id="Shape" stroke="#054CBE" stroke-width="2" fill="#FFFFFF" fill-rule="nonzero"></path>
                    <path d="M58.3489437,324.675246 L42.4399648,97.2880514" id="Shape" stroke="#054CBE" opacity="0.5"></path>
                    <path d="M394.063644,366.904411 L102.647359,366.904411" id="Shape" stroke="#054CBE" opacity="0.5"></path>
                    <path d="M94.9572183,361.802955 L86.762412,361.802955 C75.1391033,361.632022 65.5446016,352.667143 64.5891725,341.084797 L63.9883803,332.515632 C63.6259478,328.135779 59.996775,324.746624 55.6013204,324.683255 C53.6438258,324.705196 52.068539,326.297946 52.068662,328.255075 C52.068662,328.343169 52.068662,328.423255 52.068662,328.50334 L52.9498239,341.084797 C54.1994718,358.975931 69.7239437,373.471435 87.6115317,373.471435 L99.7955986,373.471435 C101.773177,373.471435 103.37632,371.868691 103.37632,369.891606 C103.37632,369.803512 103.37632,369.723426 103.37632,369.635332 C103.019971,365.239869 99.3680185,361.842421 94.9572183,361.802955 Z" id="Shape" stroke="#054CBE" fill="#FFFFFF" fill-rule="nonzero"></path>
                    <path d="M431.24868,254.159829 L420.274208,97.2880514 L43.409243,97.2880514 L61.681338,228.08394 C63.9403169,244.229208 78.9921655,257.435332 95.1334507,257.435332 L236.608011,257.435332 L234.589349,294.106552 C234.730893,297.401117 237.443037,299.999606 240.741461,300.000857 L283.790229,300.000857 C285.695077,299.993314 287.272864,298.520616 287.411004,296.621242 C288.268134,284.736531 291.256074,273.708737 288.388292,260.278373 L290.503081,257.435332 L418.295599,257.435332 C422.822607,257.470384 427.282763,256.342524 431.24868,254.159829 Z" id="Shape" fill-opacity="0.1" fill="#054CBE" fill-rule="nonzero"></path>
                    <path d="M416.268926,97.2880514 L432.217958,325.283897" id="Shape" stroke="#054CBE" opacity="0.5"></path>
                    <path d="M401.048856,361.802955 L409.235651,361.802955 C419.763673,361.945486 428.415755,353.532153 428.565141,343.006852 C428.565141,342.366167 428.541109,341.725482 428.493046,341.084797 L427.900264,332.515632 C427.55329,328.550505 430.486843,325.054783 434.452905,324.707281 C434.701232,324.707281 434.941549,324.707281 435.189877,324.707281 C437.348353,324.706167 439.139813,326.374748 439.291285,328.527366 L440.172447,341.108822 C441.422095,358.999957 427.932306,373.49546 410.036708,373.49546 L397.868662,373.49546 C395.70444,373.49235 393.910526,371.817749 393.759243,369.659358 C393.412269,365.694231 396.345822,362.198509 400.311884,361.851006 C400.528169,361.810964 400.800528,361.794946 401.048856,361.802955 Z" id="Shape" stroke="#054CBE" fill="#FFFFFF" fill-rule="nonzero"></path>
                    <path d="M451.122887,208.895418 L422.284859,73.3985011 C419.295488,59.3390874 406.894696,49.2734639 392.517606,49.2366595 L310.585563,49.2366595 L310.585563,49.1805996 C310.585563,44.7575911 306.999112,41.1720343 302.575,41.1720343 L277.205546,41.1720343 C272.781434,41.1720343 269.194982,44.7575911 269.194982,49.1805996 L269.194982,49.2366595 L151.880282,49.2366595 L151.880282,49.1805996 C151.880282,44.7575911 148.29383,41.1720343 143.869718,41.1720343 L118.500264,41.1720343 C114.076152,41.1720343 110.489701,44.7575911 110.489701,49.1805996 L110.489701,49.2366595 L29.959507,49.2366595 C35.3826585,49.2366595 38.8352113,65.5741328 39.4039613,68.3450964 C39.9727113,71.11606 69.2833627,208.895418 69.2833627,208.895418 C72.7198944,225.032677 88.7330106,238.238801 104.874296,238.238801 L428.012412,238.238801 C444.153697,238.238801 454.559419,225.040685 451.122887,208.895418 Z" id="Shape" stroke="#054CBE" stroke-width="2" fill="#FFFFFF" fill-rule="nonzero"></path>
                    <path d="M296.390845,49.7011563 L269.194982,49.7011563 C269.194982,49.7011563 270.228345,41.4283084 277.469894,41.4283084 C284.711444,41.4283084 302.575,41.1720343 302.575,41.1720343 C302.575,41.1720343 296.390845,42.2291649 296.390845,49.7011563 Z" id="Shape" fill-opacity="0.1" fill="#054CBE" fill-rule="nonzero"></path>
                    <path d="M411.446567,234.234518 L120.030282,234.234518" id="Shape" stroke="#054CBE" opacity="0.5"></path>
                    <path d="M443.657042,192.614004 L418.952465,76.225524 C415.608124,60.487072 401.706197,49.2333943 385.6125,49.2366581" id="Shape" stroke="#054CBE" opacity="0.5"></path>
                    <path d="M69.6919014,192.005353 L43.4412852,68.4892505 C42.4319542,63.7321627 38.9473592,49.2686938 35.4307218,49.2686938" id="Shape" stroke="#054CBE" opacity="0.5"></path>
                    <path d="M111.603169,229.125054 L103.416373,229.125054 C91.9692782,229.125054 80.7144366,219.851135 78.2872359,208.406895 L76.4608275,199.83773 C75.4061571,195.394249 71.5244065,192.194076 66.9602993,192.005353 C65.248168,192.005353 63.8602113,193.392964 63.8602113,195.104668 C63.8617062,195.322403 63.8831574,195.539542 63.9242958,195.753362 L66.6158451,208.406895 C70.4208627,226.290021 88.0040493,240.793533 105.867606,240.793533 L117.971567,240.793533 C119.741212,240.793533 121.175792,239.35931 121.175792,237.590107 C121.174692,237.36705 121.153242,237.144557 121.111708,236.925396 C120.036703,232.496359 116.157938,229.314409 111.603169,229.125054 Z" id="Shape" stroke="#054CBE" fill="#FFFFFF" fill-rule="nonzero"></path>
                    <path d="M417.702817,229.125054 L425.889613,229.125054 C437.336708,229.125054 444.642342,219.851135 442.20713,208.406895 L440.388732,199.83773 C439.467518,195.513105 442.231162,192.005353 446.556866,192.005353 C448.791619,192.005576 450.721871,193.568089 451.186972,195.753362 L453.878521,208.406895 C457.683539,226.290021 446.260475,240.793533 428.364877,240.793533 L416.260915,240.793533 C413.975514,240.790761 412.002639,239.192163 411.526673,236.95743 C410.605458,232.632805 413.34507,229.125054 417.702817,229.125054 Z" id="Shape" stroke="#054CBE" fill="#FFFFFF" fill-rule="nonzero"></path>
                    <path d="M284.375,216.399443 L241.758803,216.399443 C240.781517,216.399443 239.844259,216.787572 239.153214,217.478444 C238.462169,218.169317 238.073944,219.106342 238.073944,220.083383 C238.062029,220.256698 238.062029,220.430626 238.073944,220.60394 L240.589261,238.222784 L290.655282,238.222784 L287.987764,219.546809 C287.723419,217.751203 286.190331,216.415609 284.375,216.399443 Z" id="Shape" stroke="#054CBE" fill="#FFFFFF" fill-rule="nonzero"></path>
                    <polygon id="Shape" stroke="#054CBE" fill="#FFFFFF" fill-rule="nonzero" points="297.536356 238.238801 246.565141 238.238801 239.820246 238.238801 239.820246 252.574133 246.332835 250.708137 297.536356 250.507923"></polygon>
                    <path d="M239.86831,232.752934 L207.073063,200.134047 C204.75,197.82758 204.798063,194.407923 207.177201,193.126552 C220.314525,186.071006 235.88706,182.114775 253.221919,182.114775 C269.556826,182.23245 285.713688,185.517956 300.796655,191.789122 C303.808627,193.022441 305.41875,196.506167 304.040933,198.868694 L288.708715,225.200857" id="Shape" stroke="#054CBE"></path>
                    <path d="M206.976937,198.316103 C220.090229,190.259486 236.119366,185.686595 254.183187,185.686595 C271.011011,185.823228 287.619737,189.515865 302.919454,196.522184" id="Shape" stroke="#054CBE" opacity="0.5" stroke-dasharray="4"></path>
                    <path d="M289.734067,291.695974 C291.668757,291.649924 293.293809,290.227515 293.595158,288.31636 C295.277377,276.431649 296.222623,263.946296 294.292077,250.52394 L246.41294,250.708137 L239.764173,252.574133 L238.778873,285.80167 C238.656865,288.922003 241.081421,291.55362 244.202025,291.687966 L289.734067,291.687966 L289.734067,291.695974 Z" id="Shape" stroke="#054CBE" fill="#FFFFFF" fill-rule="nonzero"></path>
                    <path d="M269.227025,291.695974 C270.829137,280.267752 272.14287,268.535203 271.245687,256.458287" id="Shape" stroke="#054CBE" opacity="0.2"></path>
                    <path d="M244.161972,251.340814 C246.13257,265.03546 244.906954,278.88227 243.040493,291.695974" id="Shape" stroke="#054CBE" opacity="0.2"></path>
                    <path d="M45.5560739,97.2880514 L26.1304577,97.2880514" id="Shape" stroke="#054CBE" stroke-width="2"></path>
                    <polygon id="Shape" stroke="#054CBE" points="284.80757 250.708137 255.969542 250.708137 260.391373 256.44227 282.820951 256.44227"></polygon>
                    <path d="M34.2451585,52.784454 C34.2451585,52.784454 36.4720951,54.5303212 40.6536092,74.0952463 L45.5801056,97.3200857 L26.1304577,97.3200857 C26.1304577,97.3200857 26.0183099,93.1956745 27.9248239,74.5997859 C29.831338,56.0038972 34.2451585,52.784454 34.2451585,52.784454 Z" id="Shape" fill-opacity="0.1" fill="#054CBE" fill-rule="nonzero"></path>
                    <path d="M246.565141,238.238801 L246.332835,250.708137" id="Shape" stroke="#054CBE" stroke-width="0.75"></path>
                    <path d="M242.359595,238.238801 L239.916373,220.972334 C239.765516,219.919721 240.039639,218.850345 240.678297,218.000015 C241.316955,217.149685 242.267693,216.588241 243.320863,216.439486 C243.509416,216.414201 243.699376,216.400827 243.889613,216.399443 L247.27007,216.399443" id="Shape" stroke="#054CBE" opacity="0.2"></path>
                    <path d="M249.521039,288.957045 L287.875616,288.957045 C289.385865,288.937688 290.67753,287.866574 290.975704,286.386296 C291.618148,283.402945 291.966935,280.363885 292.017077,277.312591 C292.017077,277.312591 285.472447,272.107024 271.325792,272.107024 C257.179137,272.107024 247.630546,277.312591 247.630546,277.312591 C247.592441,280.137996 247.324539,282.955622 246.829489,285.737602 C246.683934,286.448732 246.830156,287.188512 247.235325,287.790843 C247.640494,288.393174 248.270658,288.807584 248.984331,288.941028 C249.162419,288.962079 249.342012,288.967439 249.521039,288.957045 Z" id="Shape" fill-opacity="0.1" fill="#054CBE" fill-rule="nonzero"></path>
                    <path d="M294.444278,31.946167 L285.913028,31.946167 C272.359155,12.9738758 244.947007,0 213.321303,0 C181.695599,0 154.26743,12.9738758 140.729577,31.946167 L132.174296,31.946167 C128.871001,32.059377 126.274056,34.8092379 126.350616,38.1127623 L126.350616,39.5382869 C126.274132,42.8404075 128.872263,45.5879515 132.174296,45.6968737 L150.470423,45.6968737 C154.170329,45.6863726 157.639664,43.8985012 159.794718,40.8917345 C169.519542,27.4373448 189.81831,18.1874518 213.305282,18.1874518 C236.792254,18.1874518 257.139085,27.4533619 266.831866,40.9077516 C268.98692,43.9145183 272.456256,45.7023897 276.156162,45.7128908 L294.452289,45.7128908 C297.754322,45.6039686 300.352453,42.8564247 300.275968,39.5543041 L300.275968,38.1127623 C300.356853,34.8045294 297.75267,32.0507923 294.444278,31.946167 Z" id="Shape" stroke="#054CBE" stroke-width="2" fill="#FFFFFF" fill-rule="nonzero"></path>
                    <path d="M284.463116,41.324197 C281.349572,41.3129356 278.425495,39.8274945 276.580722,37.3199143 C264.220423,20.6861242 242.135299,9.61027837 216.910035,9.61027837 C192.021215,9.61027837 170.160387,20.413833 157.711972,36.6952463 C155.526145,39.5987047 152.110562,41.3164355 148.475792,41.3402141 L126.366637,41.3402141 C127.051905,43.8844094 129.338937,45.6678493 131.974032,45.7128908 L150.28618,45.7128908 C153.992063,45.7088603 157.469033,43.920128 159.626496,40.9077516 C169.367342,27.4533619 189.698151,18.203469 213.209155,18.203469 C236.720158,18.203469 257.034947,27.4533619 266.751761,40.9077516 C268.911001,43.9180693 272.386836,45.7062174 276.092077,45.7128908 L294.412236,45.7128908 C297.048276,45.670527 299.33673,43.8859786 300.01963,41.3402141 L284.463116,41.324197 Z" id="Shape" fill-opacity="0.1" fill="#054CBE" fill-rule="nonzero"></path>
                    <path d="M140.865757,32.0983298 L152.753433,32.0983298 C155.572888,32.1027479 157.856165,34.3890396 157.856162,37.2077944" id="Shape" stroke="#054CBE" opacity="0.5"></path>
                    <path d="M297.800704,49.2366595 L269.771743,49.2366595" id="Shape" stroke="#054CBE" opacity="0.5"></path>
                    <path d="M151.880282,49.7011563 C151.880282,45.2781478 148.29383,41.692591 143.869718,41.692591 L118.500264,41.692591 C114.076152,41.692591 110.489701,45.2781478 110.489701,49.7011563" id="Shape" stroke="#054CBE" stroke-width="2" fill="#FFFFFF" fill-rule="nonzero"></path>
                    <path d="M153.70669,37.640257 C154.198803,38.1301867 154.475443,38.7959118 154.475443,39.4902355 C154.475443,40.1845593 154.198803,40.8502844 153.70669,41.3402141 L144.382394,50.6701927 C143.892342,51.1621828 143.226451,51.4387539 142.531954,51.4387539 C141.837457,51.4387539 141.171566,51.1621828 140.681514,50.6701927 C140.189401,50.180263 139.912761,49.5145378 139.912761,48.8202141 C139.912761,48.1258904 140.189401,47.4601653 140.681514,46.9702355 L150.00581,37.640257 C150.495862,37.1482668 151.161753,36.8716958 151.85625,36.8716958 C152.550747,36.8716958 153.216638,37.1482668 153.70669,37.640257 Z" id="Shape" stroke="#054CBE" stroke-width="2" fill="#FFFFFF" fill-rule="nonzero"></path>
                    <rect id="Rectangle-path" stroke="#054CBE" stroke-width="2" fill="#FFFFFF" fill-rule="nonzero" transform="translate(299.390480, 44.158709) rotate(-45.000000) translate(-299.390480, -44.158709) " x="296.775031" y="34.9488591" width="5.23089789" height="18.4197002" rx="2.61544894"></rect>
                    <path d="M294.292077,250.52394 L294.812764,254.792505" id="Shape" stroke="#054CBE"></path>
                </g>
                <g id="COFEE" transform="translate(1066.000000, 236.000000)">
                    <polygon id="Shape" stroke="#054CBE" stroke-width="2" fill="#FFFFFF" fill-rule="nonzero" points="74.008 132.423133 17.152 132.423133 4.848 22.5138554 86.312 22.5138554"></polygon>
                    <path d="M91.24,22.5138554 L90.336,14.1012048 C90.1710657,12.4574489 88.7855298,11.2085886 87.136,11.2168675 L83.032,11.2168675 L80.904,2.88433735 C80.4860219,1.18272735 78.9576803,-0.00998165854 77.208,-1.04874876e-15 L14.12,-1.04874876e-15 C12.3613888,-0.0211804622 10.8200366,1.17392165 10.4,2.88433735 L8.296,11.2168675 L4.192,11.2168675 C2.5550411,11.2411593 1.18795672,12.4733882 0.992,14.1012048 L0.088,22.5138554 L91.24,22.5138554 Z" id="Shape-2" stroke="#054CBE" stroke-width="2" fill="#FFFFFF" fill-rule="nonzero"></path>
                    <path d="M8.128,11.296988 L83.032,11.296988" id="Shape-3" stroke="#054CBE" opacity="0.5"></path>
                    <path d="M16.256,127.231325 L73.928,127.231325" id="Shape-4" stroke="#054CBE" stroke-width="0.75" opacity="0.2"></path>
                    <path d="M81.472,61.6927711 C71.632,47.2710843 59,38.5059036 45.048,38.5059036 C31.096,38.5059036 18.464,47.2710843 8.624,61.6927711" id="Shape-5" stroke="#054CBE" stroke-width="0.75"></path>
                    <ellipse id="Oval" stroke="#054CBE" transform="translate(45.524314, 51.034431) rotate(-63.060000) translate(-45.524314, -51.034431) " cx="45.5243136" cy="51.034431" rx="7.056" ry="5.36006024"></ellipse>
                    <path d="M48.328,44.5309639 C48.656,50.876506 42.344,51.2851205 42.728,57.6386747" id="Shape-6" stroke="#054CBE" stroke-width="0.75"></path>
                    <g id="Shape-7" transform="translate(53.600000, 44.066265)" fill="#054CBE" fill-rule="nonzero">
                        <path d="M4.328,0.705060241 C4.88002831,1.10047405 5.26283738,1.68985786 5.4,2.35554217 C5.55988821,3.00660675 5.44098446,3.69496353 5.072,4.25439759 C4.51642702,3.86239254 4.13261432,3.27146351 4,2.60391566 C3.84011179,1.95285108 3.95901554,1.2644943 4.328,0.705060241 Z" id="Shape"></path>
                        <path d="M2.688,3.59740964 C3.32311441,3.72045486 3.89182645,4.0707395 4.288,4.58289157 C4.72282164,5.04539916 4.87833801,5.70504868 4.696,6.31349398 C4.06247942,6.18636838 3.49509057,5.83689872 3.096,5.32801205 C2.69889957,4.84596726 2.54812507,4.20643122 2.688,3.59740964 Z" id="Shape"></path>
                        <path d="M2.44,6.48174699 C3.07511441,6.60479221 3.64382645,6.95507685 4.04,7.46722892 C4.4354897,7.95009703 4.5887335,8.58760685 4.456,9.19783133 C3.80637994,9.0839647 3.22202303,8.73282252 2.816,8.2123494 C2.46985783,7.7067747 2.33490988,7.08565436 2.44,6.48174699 Z" id="Shape"></path>
                        <path d="M1.952,8.86933735 C2.64386409,8.98710799 3.26169094,9.37275208 3.672,9.94295181 C4.12753155,10.4619096 4.31142711,11.1659239 4.168,11.8418072 C3.47445854,11.7227435 2.85457681,11.3376081 2.44,10.7681928 C2.05314824,10.2152876 1.87975184,9.5405854 1.952,8.86933735 Z" id="Shape"></path>
                        <path d="M1.296,11.2649398 C1.94842746,11.3754346 2.51911167,11.7681877 2.856,12.3385542 C3.18686654,12.8846064 3.24597328,13.5535184 3.016,14.1492771 C2.35010367,14.0466924 1.7640104,13.6534185 1.416,13.0756627 C1.01854588,12.550242 0.971368044,11.8383587 1.296,11.2649398 Z" id="Shape"></path>
                        <path d="M0.968,14.0691566 C1.41570699,14.4730659 1.63191326,15.0745433 1.544,15.6715663 C1.50713502,15.9507511 1.42328043,16.2216572 1.296,16.4727711 C1.54155509,16.3174976 1.8122828,16.2063321 2.096,16.1442771 C2.70297757,16.0542459 3.32133416,16.2004666 3.824,16.5528916 C3.53096433,17.0735221 2.99546138,17.4109752 2.4,17.450241 C1.79460819,17.5358488 1.17941638,17.3868341 0.68,17.0336145 L0.68,16.953494 L0.592,16.953494 C0.144749274,16.5496075 -0.0688556505,15.9469973 0.024,15.3510843 C0.172178581,14.8228465 0.507871125,14.3669847 0.968,14.0691566 Z" id="Shape"></path>
                        <path d="M6.624,4.08614458 C6.9001037,4.65491438 6.93189882,5.31203815 6.712,5.90487952 C6.50050044,6.52038118 6.01585816,7.00279376 5.4,7.21084337 C5.1233795,6.64504602 5.09155186,5.99014788 5.312,5.40012048 C5.52560905,4.78418833 6.00899406,4.30007533 6.624,4.08614458 Z" id="Shape"></path>
                        <path d="M7.448,7.30698795 C7.50780812,7.92597875 7.3305074,8.54460183 6.952,9.03759036 C6.57392384,9.55626715 5.99071456,9.88627665 5.352,9.94295181 C5.29539222,9.3242593 5.47236369,8.70678499 5.848,8.2123494 C6.22607616,7.69367261 6.80928544,7.36366311 7.448,7.30698795 Z" id="Shape"></path>
                        <path d="M7.28,10.8483133 C7.21877937,11.5405289 6.82071657,12.1580058 6.216,12.4987952 C5.6446186,12.9016523 4.93328786,13.0522413 4.248,12.9154217 C4.30922063,12.223206 4.70728343,11.6057291 5.312,11.2649398 C5.8837627,10.86296 6.59471797,10.7124505 7.28,10.8483133 Z" id="Shape"></path>
                        <path d="M5.968,14.4216867 C5.67749128,15.0099852 5.13601517,15.4343874 4.496,15.5754217 C3.83281969,15.7537035 3.1262829,15.6645343 2.528,15.3270482 C2.81283858,14.7295355 3.35521756,14.2955693 4,14.1492771 C4.66308897,13.9340196 5.38806828,14.0343709 5.968,14.4216867 Z" id="Shape"></path>
                    </g>
                    <path d="M13.056,99.0289157 C21.8889535,106.917213 33.293501,111.304704 45.128,111.36747 C56.944,111.36747 68.104,106.912771 77.208,98.9968675" id="Shape-8" stroke="#054CBE" stroke-width="0.75" opacity="0.3"></path>
                    <path d="M69.088,99.9422892 C61.9578403,104.630991 53.6177579,107.136784 45.088,107.153133 C36.9931313,107.141652 29.0636575,104.857211 22.2,100.559217" id="Shape-9" stroke="#054CBE" stroke-width="0.75" opacity="0.2"></path>
                    <path d="M46.28,95.4074699 C46.28,95.4074699 45.952,100.519157 40.784,101.424518 C35.616,102.32988 35.12,99.6939157 39.632,99.0209036 C44.144,98.3478916 47.432,102.554217 51.2,102.554217 C52.2783513,102.545877 53.3323172,102.231989 54.24,101.648855" id="Shape-10" stroke="#054CBE" stroke-width="0.75"></path>
                    <path d="M59.08,50.548012 C59.08,58.2956627 53.008,64.168494 45.128,64.5610843 C42.424,64.7293373 38.648,65.8029518 38.648,68.1905422" id="Shape-11" stroke="#054CBE" stroke-width="0.75"></path>
                    <g id="Shape-12" transform="translate(28.800000, 44.066265)">
                        <path d="M3.536,0.705060241 C2.98397169,1.10047405 2.60116262,1.68985786 2.464,2.35554217 C2.30411179,3.00660675 2.42301554,3.69496353 2.792,4.25439759 C3.34757298,3.86239254 3.73138568,3.27146351 3.864,2.60391566 C4.10730702,1.95829585 3.98172896,1.23130022 3.536,0.705060241 Z" id="Shape" fill="#054CBE" fill-rule="nonzero"></path>
                        <path d="M5.256,3.59740964 C4.62088559,3.72045486 4.05217355,4.0707395 3.656,4.58289157 C3.24416206,5.05767567 3.07570091,5.69701619 3.2,6.31349398 C3.84802144,6.19535494 4.43096516,5.84506195 4.84,5.32801205 C5.20419866,4.83008444 5.35402743,4.20678148 5.256,3.59740964 Z" id="Shape" fill="#054CBE" fill-rule="nonzero"></path>
                        <path d="M5.416,6.48174699 C4.76797856,6.59988602 4.18503484,6.95017901 3.776,7.46722892 C3.38548103,7.95252277 3.23546255,8.58885205 3.368,9.19783133 C4.00311441,9.07478611 4.57182645,8.72450146 4.968,8.2123494 C5.3769977,7.7361557 5.54246259,7.09697279 5.416,6.48174699 Z" id="Shape" fill="#054CBE" fill-rule="nonzero"></path>
                        <path d="M5.912,8.86933735 C5.22013591,8.98710799 4.60230906,9.37275208 4.192,9.94295181 C3.73646845,10.4619096 3.55257289,11.1659239 3.696,11.8418072 C4.38786409,11.7240366 5.00569094,11.3383925 5.416,10.7681928 C5.88355258,10.2557078 6.06907311,9.5454726 5.912,8.86933735 Z" id="Shape" fill="#054CBE" fill-rule="nonzero"></path>
                        <path d="M6.648,11.2649398 C5.98168959,11.3664586 5.39518361,11.7600094 5.048,12.3385542 C4.71713346,12.8846064 4.65802672,13.5535184 4.888,14.1492771 C5.55389633,14.0466924 6.1399896,13.6534185 6.488,13.0756627 C6.860285,12.5439789 6.92126756,11.8538381 6.648,11.2649398 Z" id="Shape" fill="#054CBE" fill-rule="nonzero"></path>
                        <path d="M6.976,14.0691566 C6.52621668,14.4713437 6.31210872,15.075373 6.408,15.6715663 C6.4423485,15.9502708 6.52349161,16.2211552 6.648,16.4727711 C5.86839418,15.9580473 4.84977351,15.9901277 4.104,16.5528916 C4.41044976,17.0946245 4.97848334,17.4353495 5.6,17.450241 C6.20539181,17.5358488 6.82058362,17.3868341 7.32,17.0336145 L7.32,16.953494 L7.408,16.953494 C7.85525073,16.5496075 8.06885565,15.9469973 7.976,15.3510843 C7.78595258,14.8288739 7.43594626,14.3801911 6.976,14.0691566 Z" id="Shape" fill="#054CBE" fill-rule="nonzero"></path>
                        <path d="M1.32,4.08614458 C1.0438963,4.65491438 1.01210118,5.31203815 1.232,5.90487952 C1.44409339,6.52284013 1.93242813,7.00598218 2.552,7.21084337 C2.82601222,6.64393073 2.85494542,5.98905552 2.632,5.40012048 C2.37154098,4.81499754 1.90424306,4.34699586 1.32,4.08614458 Z" id="Shape" fill="#054CBE" fill-rule="nonzero"></path>
                        <path d="M0.416,7.30698795 C0.357116904,7.92465153 0.53120408,8.54201974 0.904,9.03759036 C1.29566515,9.56511281 1.89731412,9.89564059 2.552,9.94295181 C2.60860778,9.3242593 2.43163631,8.70678499 2.056,8.2123494 C1.68095653,7.67012236 1.07402595,7.33506653 0.416,7.30698795 Z" id="Shape" fill="#054CBE" fill-rule="nonzero"></path>
                        <path d="M0.576,10.8483133 C0.641627592,11.5411866 1.04215711,12.1578533 1.648,12.4987952 C2.2193814,12.9016523 2.93071214,13.0522413 3.616,12.9154217 C3.55477937,12.223206 3.15671657,11.6057291 2.552,11.2649398 C1.98051738,10.8553669 1.26385931,10.7042643 0.576,10.8483133 Z" id="Shape" fill="#054CBE" fill-rule="nonzero"></path>
                        <path d="M1.896,14.4216867 C2.18650872,15.0099852 2.72798483,15.4343874 3.368,15.5754217 C4.0312394,15.7528363 4.73744502,15.6637088 5.336,15.3270482 C5.04365558,14.7402483 4.50300386,14.3164923 3.864,14.1733133 C3.20452524,13.9510097 2.47978815,14.0424759 1.896,14.4216867 Z" id="Shape" fill="#054CBE" fill-rule="nonzero"></path>
                        <path d="M2.464,6.48174699 C2.464,14.2293976 8.536,20.1022289 16.416,20.4948193 C19.12,20.6630723 23.224,21.7366867 23.224,24.1242771" id="Shape" stroke="#054CBE" stroke-width="0.75"></path>
                    </g>
                    <path d="M80.8,66.5 C76.064,58.6241566 70.48,52.4468675 64.408,48.2405422" id="Shape-13" stroke="#054CBE" stroke-width="0.75" opacity="0.3"></path>
                    <path d="M64.408,53.1839759 C69.0818613,56.5477685 73.1596897,60.6723613 76.472,65.3863253" id="Shape-14" stroke="#054CBE" stroke-width="0.75" opacity="0.2"></path>
                    <path d="M13.872,65.1379518 C17.3762289,60.1954025 21.7389135,55.9238453 26.752,52.526988" id="Shape-15" stroke="#054CBE" stroke-width="0.75" opacity="0.2"></path>
                    <path d="M26.752,47.4954217 C20.352,51.701747 14.448,58.1354217 9.36,66.5" id="Shape-16" stroke="#054CBE" stroke-width="0.75" opacity="0.3"></path>
                    <g id="Shape-17" transform="translate(25.600000, 74.512048)" fill="#054CBE" fill-rule="nonzero">
                        <path d="M4.192,1.01753012 C4.53858619,1.23771628 4.81592609,1.55158233 4.992,1.92289157 L4.088,2.66801205 C3.8410284,2.21961447 3.3751551,1.93601011 2.864,1.92289157 C2.66081618,1.92887194 2.46253481,1.9867911 2.288,2.09114458 C2.11199784,2.19065707 2.01388898,2.38717029 2.04,2.58789157 C2.04214555,2.74052288 2.10221096,2.88661571 2.208,2.99650602 C2.37265139,3.14411216 2.56604771,3.25595992 2.776,3.325 L3.52,3.66150602 C3.99083328,3.8170001 4.41282076,4.09322429 4.744,4.46271084 C5.0495771,4.81884928 5.1967418,5.2844869 5.15143433,5.75185663 C5.10612686,6.21922635 4.8722745,6.64781632 4.504,6.93843373 C4.03944843,7.27517606 3.47728205,7.4497101 2.904,7.43518072 C2.38289201,7.43519635 1.87148885,7.29400262 1.424,7.02656627 C0.993445709,6.75311484 0.62980748,6.38619072 0.36,5.95295181 L1.264,5.28795181 C1.58511162,5.85610544 2.16630093,6.22814672 2.816,6.28144578 C3.04626053,6.28959648 3.27399608,6.23118612 3.472,6.11319277 C3.61860597,5.99164737 3.70838937,5.81471074 3.72,5.62445783 C3.72,5.45620482 3.72,5.37608434 3.64,5.28795181 L3.392,5.04759036 C3.2501415,4.92896478 3.08330303,4.84405032 2.904,4.79921687 L2.16,4.46271084 C1.72353529,4.28487387 1.3325657,4.0110568 1.016,3.66150602 C0.76122108,3.36037462 0.614732259,2.98231569 0.6,2.58789157 C0.563867769,2.07928408 0.779112343,1.5852724 1.176,1.26590361 C1.63245254,0.913241105 2.20040525,0.736910607 2.776,0.769156627 C3.26233588,0.666872076 3.76932223,0.755800021 4.192,1.01753012 Z" id="Shape"></path>
                        <path d="M11.904,1.68253012 C13.1341468,2.86538324 13.3539465,4.75577073 12.4281011,6.19006167 C11.5022557,7.62435262 9.69085086,8.19963031 8.10889964,7.56178168 C6.52694841,6.92393306 5.61884778,5.25214064 5.94358047,3.57547881 C6.26831317,1.89881698 7.73465625,0.688288547 9.44,0.689036145 C10.3641154,0.659423302 11.2581588,1.01990492 11.904,1.68253012 Z M7.96,2.48373494 C7.22293781,3.39997452 7.23972592,4.71141968 8,5.60843373 C8.83770044,6.37634793 10.1222996,6.37634793 10.96,5.60843373 C11.7174468,4.69894393 11.7174468,3.37720065 10.96,2.46771084 C10.1222996,1.69979665 8.83770044,1.69979665 8,2.46771084 L7.96,2.48373494 Z" id="Shape"></path>
                        <path d="M18.792,1.10566265 C19.2915496,1.35385928 19.6961766,1.75909564 19.944,2.25939759 L18.96,2.99650602 C18.5752744,2.3185618 17.8504403,1.90638364 17.072,1.92289157 C16.5176333,1.88568979 15.9754098,2.09703511 15.592,2.49975904 C14.8146252,3.40192296 14.8146252,4.738318 15.592,5.64048193 C15.984158,6.02992563 16.5201504,6.23884226 17.072,6.2173494 C17.8504403,6.23385732 18.5752744,5.82167917 18.96,5.14373494 L19.944,5.88084337 C19.694249,6.3817368 19.2903999,6.78900282 18.792,7.04259036 C18.2577967,7.30979884 17.6691235,7.44964788 17.072,7.45120482 C15.2074867,7.45120482 13.696,5.9374418 13.696,4.07012048 C13.696,2.20279916 15.2074867,0.689036145 17.072,0.689036145 C17.6702274,0.689198841 18.2598189,0.832012464 18.792,1.10566265 Z" id="Shape"></path>
                        <polygon id="Shape" points="22.488 7.28295181 21.176 7.28295181 21.176 0.769156627 22.488 0.769156627"></polygon>
                        <path d="M29.376,4.64698795 C29.4100819,5.40350399 29.145723,6.14309686 28.64,6.70608434 C27.5127042,7.70021267 25.8232958,7.70021267 24.696,6.70608434 C24.1921087,6.14420964 23.9405114,5.39986602 24,4.64698795 L24,0.857289157 L25.312,0.857289157 L25.312,4.80722892 C25.2960471,5.20502351 25.4468461,5.59138861 25.7279328,5.87289864 C26.0090195,6.15440868 26.3948036,6.30543477 26.792,6.28945783 C27.1837044,6.27604693 27.5590887,6.1290591 27.856,5.87283133 C28.1233977,5.58316374 28.2694596,5.20168359 28.264,4.80722892 L28.264,0.857289157 L29.584,0.857289157 L29.584,4.64698795 L29.376,4.64698795 Z" id="Shape"></path>
                        <polygon id="Shape" points="37.168 0.689036145 37.168 7.37108434 35.856 7.37108434 35.856 3.90186747 34.216 5.9689759 33.808 5.9689759 32.168 3.90186747 32.168 7.37108434 30.856 7.37108434 30.856 0.689036145 31.264 0.689036145 33.968 4.23837349 36.68 0.689036145"></polygon>
                    </g>
                    <g id="Shape-18" transform="translate(25.600000, 84.126506)" fill="#054CBE" fill-rule="nonzero">
                        <path d="M5.664,0.889337349 C6.16183544,1.13991719 6.56579697,1.54448709 6.816,2.04307229 L5.832,2.78018072 C5.44647193,2.1040327 4.72119977,1.69468325 3.944,1.71457831 C3.38911251,1.6739395 2.84547371,1.88583649 2.464,2.29144578 C1.69121752,3.19227828 1.69121752,4.52332413 2.464,5.42415663 C2.85669159,5.812777 3.39231295,6.02154898 3.944,6.0010241 C4.72333564,6.02109611 5.44987159,5.60795018 5.832,4.92740964 L6.816,5.67253012 C6.56350067,6.16944973 6.16017236,6.57338546 5.664,6.82626506 C5.13113115,7.09713847 4.5415749,7.23719732 3.944,7.23487952 C3.03494216,7.25874409 2.15504627,6.91256343 1.50527616,6.27540347 C0.855506045,5.63824351 0.491357415,4.76452293 0.496,3.85379518 C0.495793481,2.9444413 0.861344674,2.07333828 1.51012614,1.43714778 C2.15890761,0.800957272 3.03622006,0.453317016 3.944,0.472710843 C4.54222744,0.47287354 5.1318189,0.615687163 5.664,0.889337349 Z" id="Shape"></path>
                        <path d="M13.464,1.46620482 C14.1010377,2.10340748 14.4589885,2.9681167 14.4589885,3.86981928 C14.4589885,4.77152185 14.1010377,5.63623108 13.464,6.27343373 C12.0835112,7.58792073 9.9164888,7.58792073 8.536,6.27343373 C7.67856258,5.39180556 7.35589349,4.11902121 7.68953903,2.93452623 C8.02318458,1.75003124 8.96245607,0.833778585 10.153539,0.530911769 C11.344622,0.228044952 12.6065626,0.584576649 13.464,1.46620482 Z M9.52,2.26740964 C8.74721752,3.16824214 8.74721752,4.49928798 9.52,5.40012048 C9.91269159,5.78874085 10.448313,5.99751284 11,5.97698795 C11.5496009,5.99916658 12.0833885,5.7899786 12.472,5.40012048 C13.2447825,4.49928798 13.2447825,3.16824214 12.472,2.26740964 C12.0850617,1.87499913 11.5501016,1.66535166 11,1.69054217 C10.4440415,1.67236631 9.9063687,1.89067003 9.52,2.29144578 L9.52,2.26740964 Z" id="Shape"></path>
                        <polygon id="Shape" points="19.856 1.7946988 16.904 1.7946988 16.904 3.44518072 19.288 3.44518072 19.288 4.67903614 16.904 4.67903614 16.904 7.15475904 15.592 7.15475904 15.592 0.640963855 19.856 0.640963855"></polygon>
                        <polygon id="Shape" points="25.112 1.7946988 22.16 1.7946988 22.16 3.44518072 24.536 3.44518072 24.536 4.67903614 22.16 4.67903614 22.16 7.15475904 20.84 7.15475904 20.84 0.640963855 25.112 0.640963855"></polygon>
                        <polygon id="Shape" points="30.528 1.7946988 27.488 1.7946988 27.488 3.11668675 29.704 3.11668675 29.704 4.27042169 27.488 4.27042169 27.488 5.92090361 30.688 5.92090361 30.688 7.15475904 26.176 7.15475904 26.176 0.640963855 30.528 0.640963855"></polygon>
                        <polygon id="Shape" points="36.104 1.7946988 33.064 1.7946988 33.064 3.11668675 35.28 3.11668675 35.28 4.27042169 33.064 4.27042169 33.064 5.92090361 36.264 5.92090361 36.264 7.15475904 31.752 7.15475904 31.752 0.640963855 36.104 0.640963855"></polygon>
                    </g>
                    <path d="M13.544,103.731988 C22.5691832,110.721819 33.6392175,114.545015 45.048,114.612349 C56.4592167,114.559331 67.5337109,110.734594 76.552,103.731988" id="Shape-19" stroke="#054CBE" stroke-width="0.75"></path>
                    <polygon id="Shape-20" fill-opacity="0.1" fill="#054CBE" fill-rule="nonzero" points="85.416 30.6701205 86.312 22.5138554 4.848 22.5138554 5.752 30.6701205"></polygon>
                    <path d="M49.64,48.873494 C49.8998332,50.2835452 49.6682496,51.7401939 48.984,52.9996988 C47.672,55.6356627 45.048,56.9576506 43.248,56.0442771" id="Shape-21" stroke="#054CBE" stroke-width="0.75" opacity="0.3"></path>
                    <polygon id="Shape-22" fill-opacity="0.1" fill="#054CBE" fill-rule="nonzero" points="40.048 132.423133 22.736 132.423133 10.432 22.5138554 37.912 22.5138554"></polygon>
                    <path d="M37.6,11.296988 L38.336,11.296988 L40,2.97246988 C40.328,1.23385542 41.48,0.0801204819 42.792,0.0801204819 L18.632,0.0801204819 C17.32,0.0801204819 16.168,1.23385542 15.84,2.97246988 L14.2,11.296988 L11.2,11.296988 C9.968,11.296988 8.984,12.5308434 8.8,14.1813253 L8.064,22.5939759 L34.544,22.5939759 L35.288,14.1813253 C35.368,12.5308434 36.352,11.296988 37.6,11.296988 Z" id="Shape-23" fill-opacity="0.1" fill="#054CBE" fill-rule="nonzero"></path>
                </g>
                <g id="LAPTOP" transform="translate(667.000000, 76.000000)">
                    <path d="M0,279.12528 C0,285.547212 4.60385564,290.790323 10.1917415,290.790323 L360.339563,290.790323 C365.936235,290.790323 370.540091,285.512023 370.540091,279.12528 L370.540091,11.6914336 C370.540091,5.27829961 365.936235,0 360.339563,0 L10.1917415,0 C4.60385564,0 0,5.27829961 0,11.6650421 L0,279.12528 Z" id="Shape" stroke="#054CBE" stroke-width="2" fill="#FFFFFF" fill-rule="nonzero"></path>
                    <rect id="Rectangle-path" fill-opacity="0.2" fill="#054CBE" fill-rule="nonzero" x="11.204236" y="16.0215054" width="352.933434" height="251.537634"></rect>
                    <rect id="Rectangle-path-2" fill="#FFFFFF" fill-rule="nonzero" x="60.8229955" y="53.672043" width="200.875946" height="96.9301075"></rect>
                    <rect id="Rectangle-path-3" fill="#FFFFFF" fill-rule="nonzero" x="60.8229955" y="154.607527" width="200.875946" height="39.2526882"></rect>
                    <rect id="Rectangle-path-4" fill="#FFFFFF" fill-rule="nonzero" x="315.319213" y="24.8333333" width="43.2163389" height="235.516129"></rect>
                    <rect id="Rectangle-path-5" fill="#FFFFFF" fill-rule="nonzero" x="267.301059" y="24.8333333" width="43.2163389" height="235.516129"></rect>
                    <rect id="Rectangle-path-6" fill="#FFFFFF" fill-rule="nonzero" x="60.8229955" y="198.666667" width="98.4372163" height="60.8817204"></rect>
                    <rect id="Rectangle-path-7" fill="#FFFFFF" fill-rule="nonzero" x="164.86233" y="198.666667" width="96.8366112" height="60.8817204"></rect>
                    <rect id="Rectangle-path-8" fill="#FFFFFF" fill-rule="nonzero" x="60.8229955" y="24.8333333" width="200.875946" height="21.6290323"></rect>
                    <path d="M68.8260212,64.8870968 L84.8320726,64.8870968" id="Shape-2" stroke="#054CBE" stroke-width="2"></path>
                    <path d="M68.8260212,210.682796 L89.633888,210.682796" id="Shape-3" stroke="#054CBE" stroke-width="2"></path>
                    <path d="M172.865356,210.682796 L193.673222,210.682796" id="Shape-4" stroke="#054CBE" stroke-width="2"></path>
                    <path d="M68.8260212,35.2473118 L89.633888,35.2473118" id="Shape-5" stroke="#054CBE" stroke-width="2"></path>
                    <path d="M273.70348,35.2473118 L297.712557,35.2473118" id="Shape-6" stroke="#054CBE" stroke-width="2"></path>
                    <path d="M321.721634,35.2473118 L345.730711,35.2473118" id="Shape-7" stroke="#054CBE" stroke-width="2"></path>
                    <path d="M101.638427,35.2473118 L122.446293,35.2473118" id="Shape-8" stroke="#054CBE" stroke-width="2"></path>
                    <path d="M159.260212,35.2473118 L180.068079,35.2473118" id="Shape-9" stroke="#054CBE" stroke-width="2"></path>
                    <path d="M232.087746,35.2473118 L252.895613,35.2473118" id="Shape-10" stroke="#054CBE" stroke-width="2"></path>
                    <path d="M133.65053,35.2473118 L147.255673,35.2473118" id="Shape-11" stroke="#054CBE" stroke-width="2"></path>
                    <path d="M315.319213,46.4623656 L358.535552,46.4623656" id="Shape-12" stroke="#054CBE" stroke-width="0.75" opacity="0.3"></path>
                    <path d="M320.921331,57.6774194 L352.933434,57.6774194" id="Shape-13" stroke="#054CBE" stroke-width="0.75" opacity="0.3"></path>
                    <path d="M320.921331,68.0913978 L352.933434,68.0913978" id="Shape-14" stroke="#054CBE" stroke-width="0.75" opacity="0.3"></path>
                    <path d="M320.921331,79.3064516 L352.933434,79.3064516" id="Shape-15" stroke="#054CBE" stroke-width="0.75" opacity="0.3"></path>
                    <path d="M320.921331,89.7204301 L352.933434,89.7204301" id="Shape-16" stroke="#054CBE" stroke-width="0.75" opacity="0.3"></path>
                    <path d="M320.921331,100.935484 L352.933434,100.935484" id="Shape-17" stroke="#054CBE" stroke-width="0.75" opacity="0.3"></path>
                    <path d="M320.921331,112.150538 L352.933434,112.150538" id="Shape-18" stroke="#054CBE" stroke-width="0.75" opacity="0.3"></path>
                    <path d="M320.921331,122.564516 L352.933434,122.564516" id="Shape-19" stroke="#054CBE" stroke-width="0.75" opacity="0.3"></path>
                    <path d="M320.921331,133.77957 L352.933434,133.77957" id="Shape-20" stroke="#054CBE" stroke-width="0.75" opacity="0.3"></path>
                    <path d="M320.921331,144.193548 L352.933434,144.193548" id="Shape-21" stroke="#054CBE" stroke-width="0.75" opacity="0.3"></path>
                    <path d="M320.921331,155.408602 L352.933434,155.408602" id="Shape-22" stroke="#054CBE" stroke-width="0.75" opacity="0.3"></path>
                    <path d="M320.921331,166.623656 L352.933434,166.623656" id="Shape-23" stroke="#054CBE" stroke-width="0.75" opacity="0.3"></path>
                    <path d="M320.921331,177.037634 L352.933434,177.037634" id="Shape-24" stroke="#054CBE" stroke-width="0.75" opacity="0.3"></path>
                    <path d="M320.921331,188.252688 L352.933434,188.252688" id="Shape-25" stroke="#054CBE" stroke-width="0.75" opacity="0.3"></path>
                    <path d="M320.921331,198.666667 L352.933434,198.666667" id="Shape-26" stroke="#054CBE" stroke-width="0.75" opacity="0.3"></path>
                    <path d="M320.921331,209.88172 L352.933434,209.88172" id="Shape-27" stroke="#054CBE" stroke-width="0.75" opacity="0.3"></path>
                    <path d="M320.921331,221.096774 L352.933434,221.096774" id="Shape-28" stroke="#054CBE" stroke-width="0.75" opacity="0.3"></path>
                    <path d="M320.921331,231.510753 L352.933434,231.510753" id="Shape-29" stroke="#054CBE" stroke-width="0.75" opacity="0.3"></path>
                    <path d="M320.921331,242.725806 L352.933434,242.725806" id="Shape-30" stroke="#054CBE" stroke-width="0.75" opacity="0.3"></path>
                    <rect id="Rectangle-path-9" fill="#FFFFFF" fill-rule="nonzero" x="17.6066566" y="24.8333333" width="37.6142209" height="235.516129"></rect>
                    <path d="M24.0090772,35.2473118 L44.816944,35.2473118" id="Shape-31" stroke="#054CBE" stroke-width="2"></path>
                    <path d="M17.6066566,46.4623656 L55.2208775,46.4623656" id="Shape-32" stroke="#054CBE" stroke-width="0.75" opacity="0.3"></path>
                    <path d="M22.408472,57.6774194 L50.419062,57.6774194" id="Shape-33" stroke="#054CBE" stroke-width="0.75" opacity="0.3"></path>
                    <path d="M22.408472,68.0913978 L50.419062,68.0913978" id="Shape-34" stroke="#054CBE" stroke-width="0.75" opacity="0.3"></path>
                    <path d="M22.408472,79.3064516 L50.419062,79.3064516" id="Shape-35" stroke="#054CBE" stroke-width="0.75" opacity="0.3"></path>
                    <path d="M22.408472,89.7204301 L50.419062,89.7204301" id="Shape-36" stroke="#054CBE" stroke-width="0.75" opacity="0.3"></path>
                    <path d="M22.408472,100.935484 L50.419062,100.935484" id="Shape-37" stroke="#054CBE" stroke-width="0.75" opacity="0.3"></path>
                    <path d="M22.408472,112.150538 L50.419062,112.150538" id="Shape-38" stroke="#054CBE" stroke-width="0.75" opacity="0.3"></path>
                    <path d="M22.408472,122.564516 L50.419062,122.564516" id="Shape-39" stroke="#054CBE" stroke-width="0.75" opacity="0.3"></path>
                    <path d="M22.408472,133.77957 L50.419062,133.77957" id="Shape-40" stroke="#054CBE" stroke-width="0.75" opacity="0.3"></path>
                    <path d="M22.408472,144.193548 L50.419062,144.193548" id="Shape-41" stroke="#054CBE" stroke-width="0.75" opacity="0.3"></path>
                    <path d="M64.0242057,147.397849 L64.0242057,139.387097" id="Shape-42" stroke="#054CBE" stroke-width="0.75" opacity="0.2"></path>
                    <path d="M70.4266263,147.397849 L70.4266263,135.38172" id="Shape-43" stroke="#054CBE" stroke-width="0.75" opacity="0.2"></path>
                    <path d="M72.827534,147.397849 L72.827534,132.978495" id="Shape-44" stroke="#054CBE" stroke-width="0.75" opacity="0.2"></path>
                    <path d="M76.0287443,147.397849 L76.0287443,139.387097" id="Shape-45" stroke="#054CBE" stroke-width="0.75" opacity="0.2"></path>
                    <path d="M78.429652,148.198925 L78.429652,133.77957" id="Shape-46" stroke="#054CBE" stroke-width="0.75" opacity="0.2"></path>
                    <path d="M81.6308623,148.198925 L81.6308623,131.376344" id="Shape-47" stroke="#054CBE" stroke-width="0.75" opacity="0.2"></path>
                    <path d="M84.03177,147.397849 L84.03177,136.182796" id="Shape-48" stroke="#054CBE" stroke-width="0.75" opacity="0.2"></path>
                    <path d="M87.2329803,147.397849 L87.2329803,137.784946" id="Shape-49" stroke="#054CBE" stroke-width="0.75" opacity="0.2"></path>
                    <path d="M90.4341906,147.397849 L90.4341906,137.784946" id="Shape-50" stroke="#054CBE" stroke-width="0.75" opacity="0.2"></path>
                    <path d="M92.8350983,147.397849 L92.8350983,136.182796" id="Shape-51" stroke="#054CBE" stroke-width="0.75" opacity="0.2"></path>
                    <path d="M96.0363086,147.397849 L96.0363086,134.580645" id="Shape-52" stroke="#054CBE" stroke-width="0.75" opacity="0.2"></path>
                    <path d="M98.4372163,147.397849 L98.4372163,136.983871" id="Shape-53" stroke="#054CBE" stroke-width="0.75" opacity="0.2"></path>
                    <path d="M101.638427,147.397849 L101.638427,128.973118" id="Shape-54" stroke="#054CBE" stroke-width="0.75" opacity="0.2"></path>
                    <path d="M104.839637,147.397849 L104.839637,132.177419" id="Shape-55" stroke="#054CBE" stroke-width="0.75" opacity="0.2"></path>
                    <path d="M107.240545,147.397849 L107.240545,141.790323" id="Shape-56" stroke="#054CBE" stroke-width="0.75" opacity="0.2"></path>
                    <path d="M110.441755,147.397849 L110.441755,133.77957" id="Shape-57" stroke="#054CBE" stroke-width="0.75" opacity="0.2"></path>
                    <path d="M112.842663,147.397849 L112.842663,132.978495" id="Shape-58" stroke="#054CBE" stroke-width="0.75" opacity="0.2"></path>
                    <path d="M116.043873,147.397849 L116.043873,140.989247" id="Shape-59" stroke="#054CBE" stroke-width="0.75" opacity="0.2"></path>
                    <path d="M119.245083,147.397849 L119.245083,134.580645" id="Shape-60" stroke="#054CBE" stroke-width="0.75" opacity="0.2"></path>
                    <path d="M121.645991,147.397849 L121.645991,133.77957" id="Shape-61" stroke="#054CBE" stroke-width="0.75" opacity="0.2"></path>
                    <path d="M124.847201,147.397849 L124.847201,142.591398" id="Shape-62" stroke="#054CBE" stroke-width="0.75" opacity="0.2"></path>
                    <path d="M127.248109,148.198925 L127.248109,133.77957" id="Shape-63" stroke="#054CBE" stroke-width="0.75" opacity="0.2"></path>
                    <path d="M130.449319,147.397849 L130.449319,126.569892" id="Shape-64" stroke="#054CBE" stroke-width="0.75" opacity="0.2"></path>
                    <path d="M133.65053,148.198925 L133.65053,131.376344" id="Shape-65" stroke="#054CBE" stroke-width="0.75" opacity="0.2"></path>
                    <path d="M136.051437,147.397849 L136.051437,128.172043" id="Shape-66" stroke="#054CBE" stroke-width="0.75" opacity="0.2"></path>
                    <path d="M139.252648,147.397849 L139.252648,132.978495" id="Shape-67" stroke="#054CBE" stroke-width="0.75" opacity="0.2"></path>
                    <path d="M141.653555,147.397849 L141.653555,124.166667" id="Shape-68" stroke="#054CBE" stroke-width="0.75" opacity="0.2"></path>
                    <path d="M144.854766,147.397849 L144.854766,139.387097" id="Shape-69" stroke="#054CBE" stroke-width="0.75" opacity="0.2"></path>
                    <path d="M147.255673,148.198925 L147.255673,141.790323" id="Shape-70" stroke="#054CBE" stroke-width="0.75" opacity="0.2"></path>
                    <path d="M150.456884,148.198925 L150.456884,141.790323" id="Shape-71" stroke="#054CBE" stroke-width="0.75" opacity="0.2"></path>
                    <path d="M153.658094,147.397849 L153.658094,132.978495" id="Shape-72" stroke="#054CBE" stroke-width="0.75" opacity="0.2"></path>
                    <path d="M156.059002,147.397849 L156.059002,128.973118" id="Shape-73" stroke="#054CBE" stroke-width="0.75" opacity="0.2"></path>
                    <path d="M159.260212,147.397849 L159.260212,128.172043" id="Shape-74" stroke="#054CBE" stroke-width="0.75" opacity="0.2"></path>
                    <path d="M162.461422,147.397849 L162.461422,132.978495" id="Shape-75" stroke="#054CBE" stroke-width="0.75" opacity="0.2"></path>
                    <path d="M164.86233,147.397849 L164.86233,139.387097" id="Shape-76" stroke="#054CBE" stroke-width="0.75" opacity="0.2"></path>
                    <path d="M168.06354,147.397849 L168.06354,144.193548" id="Shape-77" stroke="#054CBE" stroke-width="0.75" opacity="0.2"></path>
                    <path d="M170.464448,147.397849 L170.464448,136.182796" id="Shape-78" stroke="#054CBE" stroke-width="0.75" opacity="0.2"></path>
                    <path d="M173.665658,147.397849 L173.665658,139.387097" id="Shape-79" stroke="#054CBE" stroke-width="0.75" opacity="0.2"></path>
                    <path d="M176.066566,147.397849 L176.066566,135.38172" id="Shape-80" stroke="#054CBE" stroke-width="0.75" opacity="0.2"></path>
                    <path d="M179.267776,147.397849 L179.267776,130.575269" id="Shape-81" stroke="#054CBE" stroke-width="0.75" opacity="0.2"></path>
                    <path d="M182.468986,147.397849 L182.468986,132.978495" id="Shape-82" stroke="#054CBE" stroke-width="0.75" opacity="0.2"></path>
                    <path d="M184.869894,147.397849 L184.869894,128.172043" id="Shape-83" stroke="#054CBE" stroke-width="0.75" opacity="0.2"></path>
                    <path d="M188.071104,147.397849 L188.071104,128.172043" id="Shape-84" stroke="#054CBE" stroke-width="0.75" opacity="0.2"></path>
                    <path d="M190.472012,147.397849 L190.472012,132.978495" id="Shape-85" stroke="#054CBE" stroke-width="0.75" opacity="0.2"></path>
                    <path d="M193.673222,147.397849 L193.673222,139.387097" id="Shape-86" stroke="#054CBE" stroke-width="0.75" opacity="0.2"></path>
                    <path d="M196.874433,147.397849 L196.874433,136.182796" id="Shape-87" stroke="#054CBE" stroke-width="0.75" opacity="0.2"></path>
                    <path d="M199.27534,147.397849 L199.27534,142.591398" id="Shape-88" stroke="#054CBE" stroke-width="0.75" opacity="0.2"></path>
                    <path d="M202.476551,147.397849 L202.476551,139.387097" id="Shape-89" stroke="#054CBE" stroke-width="0.75" opacity="0.2"></path>
                    <path d="M204.877458,148.198925 L204.877458,137.784946" id="Shape-90" stroke="#054CBE" stroke-width="0.75" opacity="0.2"></path>
                    <path d="M208.078669,147.397849 L208.078669,140.188172" id="Shape-91" stroke="#054CBE" stroke-width="0.75" opacity="0.2"></path>
                    <path d="M211.279879,147.397849 L211.279879,139.387097" id="Shape-92" stroke="#054CBE" stroke-width="0.75" opacity="0.2"></path>
                    <path d="M213.680787,147.397849 L213.680787,132.177419" id="Shape-93" stroke="#054CBE" stroke-width="0.75" opacity="0.2"></path>
                    <path d="M216.881997,148.198925 L216.881997,131.376344" id="Shape-94" stroke="#054CBE" stroke-width="0.75" opacity="0.2"></path>
                    <path d="M219.282905,147.397849 L219.282905,139.387097" id="Shape-95" stroke="#054CBE" stroke-width="0.75" opacity="0.2"></path>
                    <path d="M222.484115,147.397849 L222.484115,129.774194" id="Shape-96" stroke="#054CBE" stroke-width="0.75" opacity="0.2"></path>
                    <path d="M225.685325,147.397849 L225.685325,128.172043" id="Shape-97" stroke="#054CBE" stroke-width="0.75" opacity="0.2"></path>
                    <path d="M228.086233,148.198925 L228.086233,131.376344" id="Shape-98" stroke="#054CBE" stroke-width="0.75" opacity="0.2"></path>
                    <path d="M231.287443,147.397849 L231.287443,127.370968" id="Shape-99" stroke="#054CBE" stroke-width="0.75" opacity="0.2"></path>
                    <path d="M233.688351,147.397849 L233.688351,124.967742" id="Shape-100" stroke="#054CBE" stroke-width="0.75" opacity="0.2"></path>
                    <path d="M236.889561,147.397849 L236.889561,132.177419" id="Shape-101" stroke="#054CBE" stroke-width="0.75" opacity="0.2"></path>
                    <path d="M239.290469,147.397849 L239.290469,134.580645" id="Shape-102" stroke="#054CBE" stroke-width="0.75" opacity="0.2"></path>
                    <path d="M242.491679,147.397849 L242.491679,139.387097" id="Shape-103" stroke="#054CBE" stroke-width="0.75" opacity="0.2"></path>
                    <path d="M245.69289,147.397849 L245.69289,133.77957" id="Shape-104" stroke="#054CBE" stroke-width="0.75" opacity="0.2"></path>
                    <path d="M248.093797,147.397849 L248.093797,136.182796" id="Shape-105" stroke="#054CBE" stroke-width="0.75" opacity="0.2"></path>
                    <path d="M251.295008,147.397849 L251.295008,139.387097" id="Shape-106" stroke="#054CBE" stroke-width="0.75" opacity="0.2"></path>
                    <path d="M254.496218,148.198925 L254.496218,135.38172" id="Shape-107" stroke="#054CBE" stroke-width="0.75" opacity="0.2"></path>
                    <path d="M256.897126,147.397849 L256.897126,139.387097" id="Shape-108" stroke="#054CBE" stroke-width="0.75" opacity="0.2"></path>
                    <path d="M67.225416,147.397849 L67.225416,134.580645" id="Shape-109" stroke="#054CBE" stroke-width="0.75" opacity="0.2"></path>
                    <path d="M22.408472,155.408602 L50.419062,155.408602" id="Shape-110" stroke="#054CBE" stroke-width="0.75" opacity="0.3"></path>
                    <path d="M22.408472,166.623656 L50.419062,166.623656" id="Shape-111" stroke="#054CBE" stroke-width="0.75" opacity="0.3"></path>
                    <path d="M22.408472,177.037634 L50.419062,177.037634" id="Shape-112" stroke="#054CBE" stroke-width="0.75" opacity="0.3"></path>
                    <path d="M22.408472,188.252688 L50.419062,188.252688" id="Shape-113" stroke="#054CBE" stroke-width="0.75" opacity="0.3"></path>
                    <path d="M22.408472,198.666667 L50.419062,198.666667" id="Shape-114" stroke="#054CBE" stroke-width="0.75" opacity="0.3"></path>
                    <path d="M22.408472,209.88172 L50.419062,209.88172" id="Shape-115" stroke="#054CBE" stroke-width="0.75" opacity="0.3"></path>
                    <path d="M22.408472,221.096774 L50.419062,221.096774" id="Shape-116" stroke="#054CBE" stroke-width="0.75" opacity="0.3"></path>
                    <path d="M22.408472,231.510753 L50.419062,231.510753" id="Shape-117" stroke="#054CBE" stroke-width="0.75" opacity="0.3"></path>
                    <path d="M22.408472,242.725806 L50.419062,242.725806" id="Shape-118" stroke="#054CBE" stroke-width="0.75" opacity="0.3"></path>
                    <path d="M272.903177,57.6774194 L304.91528,57.6774194" id="Shape-119" stroke="#054CBE" stroke-width="0.75" opacity="0.3"></path>
                    <path d="M272.903177,68.0913978 L304.91528,68.0913978" id="Shape-120" stroke="#054CBE" stroke-width="0.75" opacity="0.3"></path>
                    <path d="M272.903177,79.3064516 L304.91528,79.3064516" id="Shape-121" stroke="#054CBE" stroke-width="0.75" opacity="0.3"></path>
                    <path d="M272.903177,89.7204301 L304.91528,89.7204301" id="Shape-122" stroke="#054CBE" stroke-width="0.75" opacity="0.3"></path>
                    <path d="M272.903177,100.935484 L304.91528,100.935484" id="Shape-123" stroke="#054CBE" stroke-width="0.75" opacity="0.3"></path>
                    <path d="M272.903177,112.150538 L304.91528,112.150538" id="Shape-124" stroke="#054CBE" stroke-width="0.75" opacity="0.3"></path>
                    <path d="M272.903177,122.564516 L304.91528,122.564516" id="Shape-125" stroke="#054CBE" stroke-width="0.75" opacity="0.3"></path>
                    <path d="M272.903177,133.77957 L304.91528,133.77957" id="Shape-126" stroke="#054CBE" stroke-width="0.75" opacity="0.3"></path>
                    <path d="M272.903177,172.231183 L304.91528,172.231183" id="Shape-127" stroke="#054CBE" stroke-width="0.75" opacity="0.3"></path>
                    <path d="M272.903177,183.446237 L304.91528,183.446237" id="Shape-128" stroke="#054CBE" stroke-width="0.75" opacity="0.3"></path>
                    <path d="M272.903177,193.860215 L304.91528,193.860215" id="Shape-129" stroke="#054CBE" stroke-width="0.75" opacity="0.3"></path>
                    <path d="M272.903177,205.075269 L304.91528,205.075269" id="Shape-130" stroke="#054CBE" stroke-width="0.75" opacity="0.3"></path>
                    <path d="M272.903177,215.489247 L304.91528,215.489247" id="Shape-131" stroke="#054CBE" stroke-width="0.75" opacity="0.3"></path>
                    <path d="M272.903177,226.704301 L304.91528,226.704301" id="Shape-132" stroke="#054CBE" stroke-width="0.75" opacity="0.3"></path>
                    <path d="M272.903177,237.919355 L304.91528,237.919355" id="Shape-133" stroke="#054CBE" stroke-width="0.75" opacity="0.3"></path>
                    <path d="M272.903177,248.333333 L304.91528,248.333333" id="Shape-134" stroke="#054CBE" stroke-width="0.75" opacity="0.3"></path>
                    <path d="M267.301059,46.4623656 L310.517398,46.4623656" id="Shape-135" stroke="#054CBE" stroke-width="0.75" opacity="0.3"></path>
                    <path d="M60.8229955,222.698925 L159.260212,222.698925" id="Shape-136" stroke="#054CBE" stroke-width="0.75" opacity="0.3"></path>
                    <path d="M164.86233,222.698925 L261.698941,222.698925" id="Shape-137" stroke="#054CBE" stroke-width="0.75" opacity="0.3"></path>
                    <path d="M267.301059,140.989247 L310.517398,140.989247" id="Shape-138" stroke="#054CBE" stroke-width="0.75" opacity="0.3"></path>
                    <path d="M271.302572,152.204301 L288.909228,152.204301" id="Shape-139" stroke="#054CBE" stroke-width="2" opacity="0.5"></path>
                    <path d="M267.301059,163.419355 L310.517398,163.419355" id="Shape-140" stroke="#054CBE" stroke-width="0.75" opacity="0.3"></path>
                    <path d="M0,276.370968 L0,278.581895 C0,284.861961 4.60385564,289.989247 10.1917415,289.989247 L360.339563,289.989247 C365.936235,289.989247 370.540091,284.827549 370.540091,278.581895 L370.540091,276.370968 L0,276.370968 Z" id="Shape-141" fill-opacity="0.2" fill="#054CBE" fill-rule="nonzero"></path>
                    <polyline id="Shape-142" stroke="#054CBE" stroke-width="0.75" points="60.8229955 169.554466 62.9017058 172.297012 65.0593544 170.925739 67.3134833 176.69577 69.1115239 176.143699 71.4533621 170.382572 73.2514026 169.554466 75.1459234 166.624928 77.2158628 169.376378 79.6454103 175.867664 81.0926137 174.683383 83.3467425 171.655897 85.2324924 172.484003 87.2147225 175.591628 89.3723711 179.625308 91.2668919 181.726739 93.6087301 183.285004 96.0382776 183.285004 97.5731903 183.285004 99.7308389 185.849462 101.809549 176.232743 103.519881 180.631502 105.58982 183.008968 107.659759 179.073237 109.826179 174.772426 111.711929 172.484003 114.141476 172.39496 115.948288 173.677189 118.105936 174.220355 120.360065 171.388766 121.798498 167.631122 123.964917 165.342699 126.306755 165.342699 127.832897 163.419355 130.534344 169.741457 132.341155 167.996201 134.586513 172.39496 136.305615 178.521166 138.279074 180.266423 140.261304 179.625308 142.427724 173.490197 144.409954 166.713972 146.295704 165.618734 148.821732 166.170805 150.532063 172.39496 152.426584 170.560659 154.496523 172.297012 156.926071 170.284624 158.724111 169.27843 160.530923 166.170805 162.785051 167.355086 164.758511 166.170805 167.01264 170.925739 170.617492 169.554466 172.95933 165.983813 175.116978 171.47781 177.011499 177.791008 179.081439 177.238937 181.063669 183.463091 183.133608 183.926118 184.75623 183.926118 187.010359 179.625308 189.080298 175.956708 191.150238 170.925739 193.220177 169.643509 195.474306 176.143699 197.544245 176.232743 199.438766 180.355466 201.420996 183.008968 203.403226 179.625308 205.288976 182.180862 207.543105 180.355466 209.613044 184.567233 211.507565 185.849462 213.489795 180.631502 215.831633 177.791008 217.717383 176.419735 219.796094 172.670995 221.594134 172.484003 223.848263 179.625308 226.093621 180.44451 228.172331 177.880051 230.058081 174.131312 232.399919 176.597822 234.022541 181.085625 236.004771 181.726739 238.074711 178.067043 240.24113 183.926118 242.214589 177.336885 244.19682 179.625308 246.27553 176.597822 248.433179 172.207968 250.415409 174.585435 252.844956 180.631502 254.739477 180.996581 256.897126 179.625308"></polyline>
                    <polyline id="Shape-143" stroke="#054CBE" stroke-width="0.75" points="256.897126 110.802584 254.827186 105.414973 252.573057 108.113144 250.327699 96.8925925 248.520888 97.966622 246.27553 109.099854 244.381009 110.802584 242.486488 116.364834 240.416549 110.985955 237.987001 98.5953221 236.548569 100.839432 234.382149 106.672373 232.399919 104.969643 230.417689 98.9533319 228.260041 91.2430229 226.462 87.2001315 224.111391 84.2400016 221.594134 84.2400016 220.059221 84.2400016 217.989282 79.3064516 215.919343 97.8793025 214.209011 89.260871 212.042592 84.6853309 209.972652 92.3170524 207.902713 100.664794 206.016963 104.969643 203.578645 105.240334 201.692895 102.725533 199.526475 101.651504 197.368827 107.301073 195.921623 114.487465 193.676265 118.879635 191.422136 118.879635 189.799515 122.564516 187.185777 110.357254 185.387737 113.675394 183.045899 105.240334 181.335567 93.3910818 179.353337 90.072942 177.458817 91.2430229 175.213459 103.083543 173.318938 116.190195 171.336708 118.250934 168.90716 117.176905 167.100349 105.240334 165.302308 108.741844 163.232369 105.414973 160.706341 109.370544 158.908301 111.256645 157.11026 117.176905 154.94384 114.932795 152.96161 117.176905 150.619772 108.113144 147.023691 110.802584 144.673082 117.622234 142.515433 107.030383 140.620913 94.831853 138.647453 95.9058825 136.568743 83.8819917 134.586513 83.0699207 132.972662 83.0699207 130.630824 91.2430229 128.552113 98.3333637 126.578654 108.113144 124.499944 110.627945 122.254586 97.966622 120.175876 97.7046635 118.290126 89.8895712 116.307896 84.6853309 114.237956 91.2430229 112.431145 86.300741 110.089307 89.8895712 108.019367 81.8125203 106.221327 79.3064516 104.151387 89.260871 101.897259 94.831853 99.9150285 97.5212927 97.9327984 104.795004 96.0382776 104.969643 93.8806289 91.2430229 91.5387907 89.6276127 89.5565607 94.6484822 87.6620399 101.922194 85.3202017 97.1632828 83.7063507 88.4575319 81.7241206 87.2001315 79.557701 94.2031529 77.4000523 83.0699207 75.5055315 95.6351922 73.5233015 91.2430229 71.4533621 97.1632828 69.1992332 105.598343 67.3134833 100.935484 64.7874556 89.260871 62.9894151 88.6409028 60.8229955 91.2430229"></polyline>
                    <path d="M14.4054463,0 C8.69225181,0 4.00151286,5.2787787 4.00151286,11.6661009 L4.00151286,279.124222 C4.00151286,285.546736 8.69225181,290.790323 14.4054463,290.790323" id="Shape-144" stroke-opacity="0.5" stroke="#054CBE" stroke-width="0.75"></path>
                    <path d="M7.20272315,290.790323 L529,290.790323" id="Shape-145" stroke="#054CBE" stroke-width="0.75"></path>
                    <g id="Shape-146" transform="translate(6.402421, 282.779570)">
                        <path d="M0.87831526,0.662536369 L0.87831526,8.85470904 C12.8226502,12.6393144 25.2595002,14.5620878 37.7675562,14.5578937 L485.576591,14.5578937 C498.083599,14.5479334 510.518381,12.6254796 522.465832,8.85470904 L522.465832,0.662536369 L0.87831526,0.662536369 Z" id="Shape" stroke="#054CBE" stroke-width="2" fill="#FFFFFF" fill-rule="nonzero"></path>
                        <path d="M0.87831526,8.85470904 L522.378001,8.85470904" id="Shape" stroke="#054CBE" stroke-width="0.75"></path>
                        <path d="M307.357642,0.662536369 C307.357642,3.97521822 309.070357,6.64327008 311.327627,6.64327008 L351.826744,6.64327008 C353.987399,6.64327008 355.787945,3.95731183 355.787945,0.662536369 L307.357642,0.662536369 Z" id="Shape" fill-opacity="0.2" fill="#054CBE" fill-rule="nonzero"></path>
                        <path d="M140.591924,8.85470904 L140.591924,0.662536369 L0.799266886,0.662536369 L0.799266886,8.85470904 C12.7434507,12.6399847 25.1804013,14.5627737 37.6885078,14.5578937 L150.516886,14.5578937 C147.091457,14.6474257 143.753859,12.6240038 140.591924,8.85470904 Z" id="Shape" fill-opacity="0.1" fill="#054CBE" fill-rule="nonzero"></path>
                    </g>
                    <path d="M26.960462,289.183673 L18.8551718,289.183673 C18.4224311,289.222866 18.0055244,289.003654 17.7775999,288.617079 C17.5496755,288.230504 17.5496755,287.742614 17.7775999,287.356039 C18.0055244,286.969464 18.4224311,286.750252 18.8551718,286.789445 L26.960462,286.789445 C27.5545421,286.843251 28.01059,287.363132 28.01059,287.986559 C28.01059,288.609987 27.5545421,289.129867 26.960462,289.183673 Z" id="Shape-147" fill-opacity="0.5" fill="#054CBE" fill-rule="nonzero"></path>
                    <path d="M43.6860494,289.183673 L35.6507453,289.183673 C35.2217412,289.222866 34.8084343,289.003654 34.5824779,288.617079 C34.3565215,288.230504 34.3565215,287.742614 34.5824779,287.356039 C34.8084343,286.969464 35.2217412,286.750252 35.6507453,286.789445 L43.6860494,286.789445 C44.3081768,286.803853 44.8079429,287.334864 44.816944,287.991043 C44.7794652,288.63263 44.2944254,289.144148 43.6860494,289.183673 Z" id="Shape-148" fill-opacity="0.5" fill="#054CBE" fill-rule="nonzero"></path>
                </g>
                <g id="NEWSPAPER" transform="translate(0.000000, 296.000000)">
                    <path d="M44.9112238,6.54244898 L251.491643,6.54244898" id="Shape" stroke-opacity="0.2" stroke="#054CBE" stroke-width="0.75"></path>
                    <path d="M37.4406993,4.01938776 L251.491643,4.01938776" id="Shape" stroke="#054CBE" stroke-width="0.75"></path>
                    <path d="M44.9112238,13.5704082 L251.491643,13.5704082" id="Shape" stroke-opacity="0.5" stroke="#054CBE" stroke-width="0.75"></path>
                    <path d="M251.491643,23.1930612 L44.9112238,23.1930612" id="Shape" stroke="#054CBE" stroke-width="0.75"></path>
                    <path d="M44.9112238,27.3636735 L251.491643,27.3636735" id="Shape" stroke-opacity="0.3" stroke="#054CBE" stroke-width="0.75"></path>
                    <path d="M216.00465,64.4693878 L207.821503,64.4693878 C197.295041,64.6199354 188.638278,56.2607208 188.484615,45.7971429 C188.484615,45.1604082 188.484615,44.5236735 188.548671,43.8869388 L189.149196,35.3706122 C189.496016,31.4299349 186.56377,27.9557676 182.599476,27.6104082 C182.351259,27.6104082 182.111049,27.6104082 181.862832,27.6104082 C179.71235,27.6080844 177.922596,29.2519004 177.755245,31.3830612 L176.874476,43.8869388 C175.625385,61.6677551 189.109161,76.0738776 206.988776,76.0738776 L219.167413,76.0738776 C221.330882,76.0752591 223.127574,74.4143822 223.283007,72.2693878 C223.460858,70.3717442 222.870613,68.4818823 221.642886,67.0180044 C220.415159,65.5541265 218.651179,64.6369333 216.741294,64.4693878 C216.493077,64.4693878 216.252867,64.4693878 216.00465,64.4693878 Z" id="Shape" stroke="#054CBE" fill="#FFFFFF" fill-rule="nonzero"></path>
                    <path d="M46.6647552,30.7702041 C17.0869231,30.7702041 6.12534965,42.3906122 0.344300699,58.285102 L198.64549,58.285102 L198.64549,30.507551 L46.6647552,30.7702041 Z" id="Shape" stroke="#054CBE" stroke-width="2" fill="#FFFFFF" fill-rule="nonzero"></path>
                    <path d="M49.8515385,30.7702041 C20.2817133,30.7702041 9.32013986,42.3906122 3.53108392,58.285102 L201.84028,58.285102 L201.84028,30.507551 L49.8515385,30.7702041 Z" id="Shape" fill-opacity="0.1" fill="#054CBE" fill-rule="nonzero"></path>
                    <path d="M31.5235315,32.6963265 C20.0895455,36.2381633 16.013986,38.3632653 9.7365035,46.3622449 C0.344300699,58.3010204 26.9515385,52.26 26.9515385,52.26 L31.5235315,32.6963265 Z" id="Shape" fill-opacity="0.1" fill="#054CBE" fill-rule="nonzero"></path>
                    <path d="M273.110524,77.7532653 L42.1327972,77.4906122 C29.4257789,77.0254169 19.3660833,66.6507293 19.3660833,54.0110204 C19.3660833,41.3713115 29.4257789,30.9966239 42.1327972,30.5314286 L273.110524,30.5314286 L273.110524,77.7532653 Z" id="Shape" stroke="#054CBE" stroke-width="2" fill="#FFFFFF" fill-rule="nonzero"></path>
                    <path d="M275.912972,77.7532653 L44.9352448,77.4906122 C36.2933318,77.8526641 28.1426386,73.4936349 23.6845927,66.1256634 C19.2265468,58.7576919 19.173211,49.5576294 23.5455346,42.1390749 C27.9178581,34.7205204 36.0174703,30.2684045 44.663007,30.5314286 L275.912972,30.5314286 L275.912972,77.7532653 Z" id="Shape" fill-opacity="0.1" fill="#054CBE" fill-rule="nonzero"></path>
                    <path d="M275.912972,77.7532653 L44.9352448,77.5861224 C31.8838462,77.5861224 21.3066084,65.7587755 21.3066084,54.0030612 C21.3066084,45.7653061 31.8838462,47.755102 44.9352448,47.755102 L275.912972,47.755102 L275.912972,77.7532653 Z" id="Shape" fill-opacity="0.1" fill="#054CBE" fill-rule="nonzero"></path>
                    <path d="M206.388252,71.5212245 L47.5295105,71.5212245 C38.0705528,71.5212245 30.4025524,63.8990094 30.4025524,54.4965306 C30.4025524,45.0940518 38.0705528,37.4718367 47.5295105,37.4718367 L213.994895,37.4718367 L206.388252,71.5212245 Z" id="Shape" stroke="#054CBE" fill="#FFFFFF" fill-rule="nonzero"></path>
                    <path d="M208.838392,71.5212245 L49.9796503,71.5212245 C40.5206926,71.5212245 32.8526923,63.8990094 32.8526923,54.4965306 C32.8526923,45.0940518 40.5206926,37.4718367 49.9796503,37.4718367 L216.445035,37.4718367 L208.838392,71.5212245 Z" id="Shape" fill-opacity="0.1" fill="#054CBE" fill-rule="nonzero"></path>
                    <path d="M208.838392,71.5212245 L49.9796503,71.5212245 C40.5794406,71.5212245 33.0528671,63.9679592 33.0528671,56.335102 C33.0528671,50.5885714 40.5794406,50.7636735 49.9796503,50.7636735 L216.445035,50.7636735 L208.838392,71.5212245 Z" id="Shape" fill-opacity="0.1" fill="#054CBE" fill-rule="nonzero"></path>
                    <path d="M212.593671,64.9071429 L53.7348694,64.9071429 C49.205252,64.8944952 44.8662123,63.0937176 41.6722988,59.9009643 C38.4783852,56.708211 36.6912293,52.3850185 36.703921,47.882449 L212.689755,47.882449 L212.593671,64.9071429 Z" id="Shape" stroke="#054CBE" stroke-width="0.75" fill="#FFFFFF" fill-rule="nonzero"></path>
                    <path d="M215.091853,64.9071429 L56.2410341,64.9071429 C46.8161364,64.872039 39.2031607,57.2510812 39.2340775,47.882449 L215.195944,47.882449 L215.091853,64.9071429 Z" id="Shape" fill-opacity="0.1" fill="#054CBE" fill-rule="nonzero"></path>
                    <path d="M5.9491958,23.3044898 C13.6519231,28.08 23.6046154,30.7702041 36.631993,30.7702041 L273.110524,30.7702041 L273.110524,23.3044898 L5.9491958,23.3044898 Z" id="Shape" stroke="#054CBE" stroke-width="2" fill="#FFFFFF" fill-rule="nonzero"></path>
                    <path d="M12.8832517,23.3044898 C20.593986,28.08 30.5466783,30.7702041 43.5740559,30.7702041 L280.052587,30.7702041 L280.052587,23.3044898 L12.8832517,23.3044898 Z" id="Shape" fill-opacity="0.1" fill="#054CBE" fill-rule="nonzero"></path>
                    <path d="M20.9623077,23.3044898 C28.665035,28.08 38.5776923,30.7702041 51.6451049,30.7702041 L288.123636,30.7702041 L288.123636,23.3044898 L20.9623077,23.3044898 Z" id="Shape" fill-opacity="0.1" fill="#054CBE" fill-rule="nonzero"></path>
                    <path d="M159.643427,45.9244898 L43.5980769,45.9244898 C43.5980769,56.3987755 49.4511888,64.8912245 56.6734965,64.8912245 L160.348042,64.8912245 L159.643427,45.9244898 Z" id="Shape" stroke="#054CBE" stroke-width="0.75" fill="#FFFFFF" fill-rule="nonzero"></path>
                    <path d="M162.141608,45.9244898 L46.0882517,45.9244898 C46.0882517,56.2714286 51.9493706,64.7320408 59.1636713,64.7320408 L162.838217,64.7320408 L162.141608,45.9244898 Z" id="Shape" fill-opacity="0.1" fill="#054CBE" fill-rule="nonzero"></path>
                    <path d="M51.9894056,42.8761224 C51.9894056,55.0457143 56.8816783,64.9071429 62.926958,64.9071429 L152.132867,64.9071429 L152.132867,42.8761224 L51.9894056,42.8761224 Z" id="Shape" stroke="#054CBE" stroke-width="0.75" fill="#FFFFFF" fill-rule="nonzero"></path>
                    <path d="M54.3915035,42.8761224 C54.3915035,54.9183673 59.2517483,64.74 65.3290559,64.74 L154.534965,64.74 L154.534965,42.8761224 L54.3915035,42.8761224 Z" id="Shape" fill-opacity="0.1" fill="#054CBE" fill-rule="nonzero"></path>
                    <path d="M79.2692308,37.4718367 C86.7613118,37.6512388 92.7408518,43.739983 92.7408518,51.1894898 C92.7408518,58.6389966 86.7613118,64.7277408 79.2692308,64.9071429 L271.437063,64.9071429 C278.929144,64.7277408 284.908684,58.6389966 284.908684,51.1894898 C284.908684,43.739983 278.929144,37.6512388 271.437063,37.4718367 L100.255559,37.4718367" id="Shape" stroke="#054CBE" stroke-width="0.75" fill="#FFFFFF" fill-rule="nonzero"></path>
                    <path d="M82.0316434,37.4718367 C89.5237244,37.6512388 95.5032644,43.739983 95.5032644,51.1894898 C95.5032644,58.6389966 89.5237244,64.7277408 82.0316434,64.9071429 L274.263531,64.9071429 C281.755613,64.7277408 287.735153,58.6389966 287.735153,51.1894898 C287.735153,43.739983 281.755613,37.6512388 274.263531,37.4718367 L103.058007,37.4718367" id="Shape" fill-opacity="0.1" fill="#054CBE" fill-rule="nonzero"></path>
                    <path d="M86.6837063,30.7861224 C97.9999629,30.7861224 107.173601,39.9049856 107.173601,51.1536735 C107.173601,62.4023613 97.9999629,71.5212245 86.6837063,71.5212245 L372.165035,71.5212245 C383.481292,71.5212245 392.65493,62.4023613 392.65493,51.1536735 C392.65493,39.9049856 383.481292,30.7861224 372.165035,30.7861224 L117.902972,30.7861224" id="Shape" stroke="#054CBE" stroke-width="0.75" fill="#FFFFFF" fill-rule="nonzero"></path>
                    <path d="M89.269965,30.7861224 C100.586222,30.7861224 109.75986,39.9049856 109.75986,51.1536735 C109.75986,62.4023613 100.586222,71.5212245 89.269965,71.5212245 L374.727273,71.5212245 C386.043529,71.5212245 395.217168,62.4023613 395.217168,51.1536735 C395.217168,39.9049856 386.043529,30.7861224 374.727273,30.7861224 L120.489231,30.7861224" id="Shape" fill-opacity="0.1" fill="#054CBE" fill-rule="nonzero"></path>
                    <path d="M87.6685664,25.6206122 C100.252231,25.8535635 110.330754,36.060221 110.330754,48.5709184 C110.330754,61.0816157 100.252231,71.2882732 87.6685664,71.5212245 L409.32549,71.5212245 C421.91907,71.3739028 432.071266,61.2228892 432.145516,48.7038554 C432.219767,36.1848216 422.188684,25.9155257 409.597727,25.6206122 L122.851294,25.6206122" id="Shape" stroke="#054CBE" fill="#FFFFFF" fill-rule="nonzero"></path>
                    <path d="M90.6711888,25.6206122 C103.254854,25.8535635 113.333377,36.060221 113.333377,48.5709184 C113.333377,61.0816157 103.254854,71.2882732 90.6711888,71.5212245 L412.36014,71.5212245 C424.95372,71.3739028 435.105916,61.2228892 435.180167,48.7038554 C435.254417,36.1848216 425.223335,25.9155257 412.632378,25.6206122 L125.853916,25.6206122" id="Shape" fill-opacity="0.1" fill="#054CBE" fill-rule="nonzero"></path>
                    <path d="M332.730594,13.9763265 L11.0736713,13.9763265 C17.4312238,21.0440816 28.0244755,25.6206122 47.4894755,25.6206122 L332.730594,25.6206122 L332.730594,13.9763265 Z" id="Shape" stroke="#054CBE" stroke-width="2" fill="#FFFFFF" fill-rule="nonzero"></path>
                    <path d="M337.53479,13.9763265 L15.8778671,13.9763265 C22.2354196,21.0440816 32.8286713,25.6206122 52.2936713,25.6206122 L337.53479,25.6206122 L337.53479,13.9763265 Z" id="Shape" fill-opacity="0.1" fill="#054CBE" fill-rule="nonzero"></path>
                    <path d="M347.671643,13.9763265 L26.0227273,13.9763265 C32.3802797,21.0440816 42.9655245,25.6206122 62.4545455,25.6206122 L347.671643,25.6206122 L347.671643,13.9763265 Z" id="Shape" fill-opacity="0.1" fill="#054CBE" fill-rule="nonzero"></path>
                    <path d="M107.101538,77.7532653 C122.77901,77.4930731 135.351028,64.7857277 135.351028,49.1996939 C135.351028,33.6136601 122.77901,20.9063146 107.101538,20.6461224 L47.7216783,20.6461224 C34.9199393,20.6449955 23.6626693,12.2264924 20.1135664,-7.10542736e-15 L341.762483,-7.10542736e-15 C345.311585,12.2264924 356.568855,20.6449955 369.370594,20.6461224 L428.750455,20.6461224 C439.127245,20.4739034 448.790802,25.8782034 454.029856,34.7835114 C459.26891,43.6888194 459.26891,54.7105683 454.029856,63.6158763 C448.790802,72.5211843 439.127245,77.9254844 428.750455,77.7532653 L107.101538,77.7532653 Z" id="Shape" stroke="#054CBE" stroke-width="2" fill="#FFFFFF" fill-rule="nonzero"></path>
                    <path d="M87.6685664,30.7702041 L102.689685,30.7702041" id="Shape" stroke="#054CBE" stroke-width="2"></path>
                    <path d="M369.370594,20.6461224 L107.101538,20.6461224" id="Shape" stroke="#054CBE" stroke-width="0.75"></path>
                    <path d="M288.251748,30.8736735 L219.183427,30.8736735 C220.868841,32.8730708 222.269827,35.0932301 223.347063,37.4718367 L292.439406,37.4718367 C291.348742,35.095064 289.940123,32.8756135 288.251748,30.8736735 Z" id="Shape" fill-opacity="0.5" fill="#054CBE" fill-rule="nonzero"></path>
                    <path d="M282.446678,25.6206122 C277.677143,22.3732651 272.029591,20.6388803 266.248531,20.6461001 L197.164196,20.6460777 C202.945255,20.6388803 208.592808,22.3732651 213.362343,25.6206122 L282.446678,25.6206122 Z" id="Shape" fill-opacity="0.1" fill="#054CBE" fill-rule="nonzero"></path>
                    <path d="M225.132622,42.7328571 C227.118312,51.2148809 225.100777,60.1339827 219.653555,66.9546719 C214.206333,73.7753611 205.925166,77.7516839 197.164196,77.7532653 L266.248531,77.7532653 C275.009812,77.7510552 283.291225,73.7749554 288.739596,66.9547795 C294.187968,60.1346037 296.20773,51.2158736 294.224965,42.7328571 L225.132622,42.7328571 Z" id="Shape" fill-opacity="0.1" fill="#054CBE" fill-rule="nonzero"></path>
                    <path d="M142.388357,69.5553061 C137.020287,74.8170126 129.781667,77.7626726 122.242762,77.7533099 L191.367133,77.7532876 C198.903436,77.7614378 206.13911,74.8158058 211.50472,69.5553061 L142.388357,69.5553061 Z" id="Shape" fill-opacity="0.1" fill="#054CBE" fill-rule="nonzero"></path>
                    <path d="M150.971853,49.2036731 C150.978688,54.0135841 149.755344,58.7462789 147.416748,62.9571429 L216.509091,62.9571429 C221.391889,54.115028 221.221525,43.3686319 216.060869,34.6838421 C210.900213,25.9990523 201.514373,20.6634564 191.367133,20.6461213 L122.242762,20.6461202 C129.862842,20.6440094 137.171433,23.6520646 142.559644,29.0081023 C147.947854,34.36414 150.973978,41.6290922 150.971853,49.2036731 Z" id="Shape" fill-opacity="0.1" fill="#054CBE" fill-rule="nonzero"></path>
                    <path d="M374.591154,54.4567347 C372.044463,67.9627944 360.182292,77.7510133 346.358497,77.7532653 L415.442832,77.7532653 C429.267782,77.7541927 441.13173,67.9645078 443.67549,54.4567347 L374.591154,54.4567347 Z" id="Shape" fill-opacity="0.1" fill="#054CBE" fill-rule="nonzero"></path>
                    <path d="M375.047552,47.8585714 L444.131888,47.8585714 C443.413473,32.627875 430.78185,20.6463929 415.442832,20.6461224 L346.358497,20.6461224 C361.697514,20.6463929 374.329137,32.627875 375.047552,47.8585714 Z" id="Shape" fill-opacity="0.1" fill="#054CBE" fill-rule="nonzero"></path>
                    <path d="M300.262238,49.2036735 C300.263291,52.2890136 299.757535,55.3538243 298.76493,58.2771429 L367.857273,58.2771429 C370.80066,49.5681146 369.346595,39.9831416 363.950482,32.5241741 C358.554368,25.0652066 349.876041,20.6443258 340.633497,20.6461224 L271.549161,20.6461219 C279.166466,20.6482331 286.470943,23.6581522 291.855689,29.013732 C297.240436,34.3693117 300.264362,41.6318508 300.262238,49.2036735 Z" id="Shape" fill-opacity="0.1" fill="#054CBE" fill-rule="nonzero"></path>
                    <path d="M295.554126,64.8753061 C290.248534,72.9246217 281.214105,77.7681091 271.533147,77.7533329 L340.617483,77.753299 C350.296967,77.7622948 359.328791,72.9202042 364.638462,64.8753061 L295.554126,64.8753061 Z" id="Shape" fill-opacity="0.5" fill="#054CBE" fill-rule="nonzero"></path>
                    <path d="M332.218147,7.8477551 L35.3829021,7.8477551 C37.5163349,11.0060364 40.2598002,13.7114771 43.453951,15.8069388 L340.297203,15.8069388 C337.099084,13.7136277 334.352601,11.0078956 332.218147,7.8477551 Z" id="Shape" fill-opacity="0.1" fill="#054CBE" fill-rule="nonzero"></path>
                    <path d="M90.6711888,71.5212245 L124.700909,71.5212245 C124.700909,71.5212245 135.830629,64.9787755 135.830629,49.2355102 C127.823636,44.0063265 113.619231,42.422449 113.619231,51.2253061 C113.619231,60.0281633 105.82042,70.5342857 90.6711888,71.5212245 Z" id="Shape" fill-opacity="0.1" fill="#054CBE" fill-rule="nonzero"></path>
                    <path d="M107.157587,52.0291837 C107.157587,45.9244898 95.8276923,47.014898 95.8276923,51.1934694 C95.8276923,55.3720408 93.0732867,64.9071429 82.0316434,64.9071429 L101.800909,64.9071429 C101.800909,64.9071429 107.157587,58.5955102 107.157587,52.0291837 Z" id="Shape" fill-opacity="0.1" fill="#054CBE" fill-rule="nonzero"></path>
                    <path d="M79.2692308,64.9071429 L65.3290559,64.9071429 C60.3807343,64.9071429 57.1058741,57.895102 55.7206643,53.2230612 C54.3354545,48.5510204 66.458042,48.3520408 74.2728671,49.1479592 C83.9373077,50.134898 92.2485664,55.3402041 92.2485664,55.3402041 C92.2485664,55.3402041 89.6783217,64.9071429 79.2692308,64.9071429 Z" id="Shape" fill-opacity="0.1" fill="#054CBE" fill-rule="nonzero"></path>
                </g>
            </g>
        </g>
    </g>
</svg>